FundName,URL,Performance Table CSS Selector,History NAV CSS Selector,History NAV Next Page CSS Selector
TempletonEmergingMarkets,https://fund.cnyes.com/detail/%E5%AF%8C%E8%98%AD%E5%85%8B%E6%9E%97%E5%9D%A6%E4%BC%AF%E9%A0%93%E5%85%A8%E7%90%83%E6%8A%95%E8%B3%87%E7%B3%BB%E5%88%97-%E6%96%B0%E8%88%88%E5%9C%8B%E5%AE%B6%E5%9B%BA%E5%AE%9A%E6%94%B6%E7%9B%8A/B15%2C125/,table[data-reactid="347"],section[data-reactid="497"],a[data-reactid="507"]
StrategicIncome,https://fund.cnyes.com/detail/%E5%AF%8C%E8%98%AD%E5%85%8B%E6%9E%97%E5%9D%A6%E4%BC%AF%E9%A0%93%E5%85%A8%E7%90%83%E6%8A%95%E8%B3%87%E7%B3%BB%E5%88%97-%E7%B2%BE%E9%81%B8%E6%94%B6%E7%9B%8A%E5%9F%BA%E9%87%91%E7%BE%8E%E5%85%83A%EF%BC%88Mdis%EF%BC%89%E8%82%A1/B15%2C122/,table[data-reactid="347"],section[data-reactid="502"],a[data-reactid="512"]
RMBMoneyMarket,https://fund.cnyes.com/detail/%E5%85%86%E8%B1%90%E5%9C%8B%E9%9A%9B%E4%BA%BA%E6%B0%91%E5%B9%A3%E8%B2%A8%E5%B9%A3%E5%B8%82%E5%A0%B4%E5%9F%BA%E9%87%91/A19029/,table[data-reactid="347"],section[data-reactid="482"],a[data-reactid="492"]
GoldFund,https://fund.cnyes.com/detail/%E5%AF%8C%E8%98%AD%E5%85%8B%E6%9E%97%E9%BB%83%E9%87%91%E5%9F%BA%E9%87%91%E7%BE%8E%E5%85%83A%E8%82%A1/B15%2C232/,table[data-reactid="346"],section[data-reactid="501"],a[data-reactid="511"]
BalanceSheetInvestmentFund,https://fund.cnyes.com/detail/%E5%AF%8C%E8%98%AD%E5%85%8B%E6%9E%97%E6%BD%9B%E5%8A%9B%E7%B5%84%E5%90%88%E5%9F%BA%E9%87%91A%E8%82%A1/B15%2C035/,table[data-reactid="346"],section[data-reactid="501"],a[data-reactid="511"]
AllianzIncomeandGrowth,https://fund.cnyes.com/detail/%E5%AE%89%E8%81%AF%E6%94%B6%E7%9B%8A%E6%88%90%E9%95%B7%E5%9F%BA%E9%87%91-AM%E7%A9%A9%E5%AE%9A%E6%9C%88%E6%94%B6%E9%A1%9E%E8%82%A1(%E7%BE%8E%E5%85%83)/B20%2C073/,table[data-reactid="347"],section[data-reactid="495"],a[data-reactid="505"]
