<?xml version="1.0" encoding="utf-8" standalone="no"?>
<!DOCTYPE svg PUBLIC "-//W3C//DTD SVG 1.1//EN"
  "http://www.w3.org/Graphics/SVG/1.1/DTD/svg11.dtd">
<!-- Created with matplotlib (https://matplotlib.org/) -->
<svg height="345.6pt" version="1.1" viewBox="0 0 460.8 345.6" width="460.8pt" xmlns="http://www.w3.org/2000/svg" xmlns:xlink="http://www.w3.org/1999/xlink">
 <defs>
  <style type="text/css">
*{stroke-linecap:butt;stroke-linejoin:round;}
  </style>
 </defs>
 <g id="figure_1">
  <g id="patch_1">
   <path d="M 0 345.6 
L 460.8 345.6 
L 460.8 0 
L 0 0 
z
" style="fill:#ffffff;"/>
  </g>
  <g id="axes_1">
   <g id="patch_2">
    <path d="M 57.6 276.48 
L 414.72 276.48 
L 414.72 41.472 
L 57.6 41.472 
z
" style="fill:#ffffff;"/>
   </g>
   <g id="matplotlib.axis_1">
    <g id="xtick_1">
     <g id="line2d_1">
      <path clip-path="url(#p8c72864d17)" d="M 70.781334 276.48 
L 70.781334 41.472 
" style="fill:none;stroke:#b0b0b0;stroke-linecap:square;stroke-width:0.8;"/>
     </g>
     <g id="line2d_2">
      <defs>
       <path d="M 0 0 
L 0 3.5 
" id="md5f26b0902" style="stroke:#000000;stroke-width:0.8;"/>
      </defs>
      <g>
       <use style="stroke:#000000;stroke-width:0.8;" x="70.781334" xlink:href="#md5f26b0902" y="276.48"/>
      </g>
     </g>
     <g id="text_1">
      <!-- 2010 -->
      <defs>
       <path d="M 19.1875 8.296875 
L 53.609375 8.296875 
L 53.609375 0 
L 7.328125 0 
L 7.328125 8.296875 
Q 12.9375 14.109375 22.625 23.890625 
Q 32.328125 33.6875 34.8125 36.53125 
Q 39.546875 41.84375 41.421875 45.53125 
Q 43.3125 49.21875 43.3125 52.78125 
Q 43.3125 58.59375 39.234375 62.25 
Q 35.15625 65.921875 28.609375 65.921875 
Q 23.96875 65.921875 18.8125 64.3125 
Q 13.671875 62.703125 7.8125 59.421875 
L 7.8125 69.390625 
Q 13.765625 71.78125 18.9375 73 
Q 24.125 74.21875 28.421875 74.21875 
Q 39.75 74.21875 46.484375 68.546875 
Q 53.21875 62.890625 53.21875 53.421875 
Q 53.21875 48.921875 51.53125 44.890625 
Q 49.859375 40.875 45.40625 35.40625 
Q 44.1875 33.984375 37.640625 27.21875 
Q 31.109375 20.453125 19.1875 8.296875 
z
" id="DejaVuSans-50"/>
       <path d="M 31.78125 66.40625 
Q 24.171875 66.40625 20.328125 58.90625 
Q 16.5 51.421875 16.5 36.375 
Q 16.5 21.390625 20.328125 13.890625 
Q 24.171875 6.390625 31.78125 6.390625 
Q 39.453125 6.390625 43.28125 13.890625 
Q 47.125 21.390625 47.125 36.375 
Q 47.125 51.421875 43.28125 58.90625 
Q 39.453125 66.40625 31.78125 66.40625 
z
M 31.78125 74.21875 
Q 44.046875 74.21875 50.515625 64.515625 
Q 56.984375 54.828125 56.984375 36.375 
Q 56.984375 17.96875 50.515625 8.265625 
Q 44.046875 -1.421875 31.78125 -1.421875 
Q 19.53125 -1.421875 13.0625 8.265625 
Q 6.59375 17.96875 6.59375 36.375 
Q 6.59375 54.828125 13.0625 64.515625 
Q 19.53125 74.21875 31.78125 74.21875 
z
" id="DejaVuSans-48"/>
       <path d="M 12.40625 8.296875 
L 28.515625 8.296875 
L 28.515625 63.921875 
L 10.984375 60.40625 
L 10.984375 69.390625 
L 28.421875 72.90625 
L 38.28125 72.90625 
L 38.28125 8.296875 
L 54.390625 8.296875 
L 54.390625 0 
L 12.40625 0 
z
" id="DejaVuSans-49"/>
      </defs>
      <g transform="translate(68.701647 308.93)rotate(-90)scale(0.1 -0.1)">
       <use xlink:href="#DejaVuSans-50"/>
       <use x="63.623047" xlink:href="#DejaVuSans-48"/>
       <use x="127.246094" xlink:href="#DejaVuSans-49"/>
       <use x="190.869141" xlink:href="#DejaVuSans-48"/>
      </g>
     </g>
    </g>
    <g id="xtick_2">
     <g id="line2d_3">
      <path clip-path="url(#p8c72864d17)" d="M 105.146955 276.48 
L 105.146955 41.472 
" style="fill:none;stroke:#b0b0b0;stroke-linecap:square;stroke-width:0.8;"/>
     </g>
     <g id="line2d_4">
      <g>
       <use style="stroke:#000000;stroke-width:0.8;" x="105.146955" xlink:href="#md5f26b0902" y="276.48"/>
      </g>
     </g>
     <g id="text_2">
      <!-- 2011 -->
      <g transform="translate(103.067267 308.93)rotate(-90)scale(0.1 -0.1)">
       <use xlink:href="#DejaVuSans-50"/>
       <use x="63.623047" xlink:href="#DejaVuSans-48"/>
       <use x="127.246094" xlink:href="#DejaVuSans-49"/>
       <use x="190.869141" xlink:href="#DejaVuSans-49"/>
      </g>
     </g>
    </g>
    <g id="xtick_3">
     <g id="line2d_5">
      <path clip-path="url(#p8c72864d17)" d="M 139.512576 276.48 
L 139.512576 41.472 
" style="fill:none;stroke:#b0b0b0;stroke-linecap:square;stroke-width:0.8;"/>
     </g>
     <g id="line2d_6">
      <g>
       <use style="stroke:#000000;stroke-width:0.8;" x="139.512576" xlink:href="#md5f26b0902" y="276.48"/>
      </g>
     </g>
     <g id="text_3">
      <!-- 2012 -->
      <g transform="translate(137.432888 308.93)rotate(-90)scale(0.1 -0.1)">
       <use xlink:href="#DejaVuSans-50"/>
       <use x="63.623047" xlink:href="#DejaVuSans-48"/>
       <use x="127.246094" xlink:href="#DejaVuSans-49"/>
       <use x="190.869141" xlink:href="#DejaVuSans-50"/>
      </g>
     </g>
    </g>
    <g id="xtick_4">
     <g id="line2d_7">
      <path clip-path="url(#p8c72864d17)" d="M 173.972349 276.48 
L 173.972349 41.472 
" style="fill:none;stroke:#b0b0b0;stroke-linecap:square;stroke-width:0.8;"/>
     </g>
     <g id="line2d_8">
      <g>
       <use style="stroke:#000000;stroke-width:0.8;" x="173.972349" xlink:href="#md5f26b0902" y="276.48"/>
      </g>
     </g>
     <g id="text_4">
      <!-- 2013 -->
      <defs>
       <path d="M 40.578125 39.3125 
Q 47.65625 37.796875 51.625 33 
Q 55.609375 28.21875 55.609375 21.1875 
Q 55.609375 10.40625 48.1875 4.484375 
Q 40.765625 -1.421875 27.09375 -1.421875 
Q 22.515625 -1.421875 17.65625 -0.515625 
Q 12.796875 0.390625 7.625 2.203125 
L 7.625 11.71875 
Q 11.71875 9.328125 16.59375 8.109375 
Q 21.484375 6.890625 26.8125 6.890625 
Q 36.078125 6.890625 40.9375 10.546875 
Q 45.796875 14.203125 45.796875 21.1875 
Q 45.796875 27.640625 41.28125 31.265625 
Q 36.765625 34.90625 28.71875 34.90625 
L 20.21875 34.90625 
L 20.21875 43.015625 
L 29.109375 43.015625 
Q 36.375 43.015625 40.234375 45.921875 
Q 44.09375 48.828125 44.09375 54.296875 
Q 44.09375 59.90625 40.109375 62.90625 
Q 36.140625 65.921875 28.71875 65.921875 
Q 24.65625 65.921875 20.015625 65.03125 
Q 15.375 64.15625 9.8125 62.3125 
L 9.8125 71.09375 
Q 15.4375 72.65625 20.34375 73.4375 
Q 25.25 74.21875 29.59375 74.21875 
Q 40.828125 74.21875 47.359375 69.109375 
Q 53.90625 64.015625 53.90625 55.328125 
Q 53.90625 49.265625 50.4375 45.09375 
Q 46.96875 40.921875 40.578125 39.3125 
z
" id="DejaVuSans-51"/>
      </defs>
      <g transform="translate(171.892662 308.93)rotate(-90)scale(0.1 -0.1)">
       <use xlink:href="#DejaVuSans-50"/>
       <use x="63.623047" xlink:href="#DejaVuSans-48"/>
       <use x="127.246094" xlink:href="#DejaVuSans-49"/>
       <use x="190.869141" xlink:href="#DejaVuSans-51"/>
      </g>
     </g>
    </g>
    <g id="xtick_5">
     <g id="line2d_9">
      <path clip-path="url(#p8c72864d17)" d="M 208.33797 276.48 
L 208.33797 41.472 
" style="fill:none;stroke:#b0b0b0;stroke-linecap:square;stroke-width:0.8;"/>
     </g>
     <g id="line2d_10">
      <g>
       <use style="stroke:#000000;stroke-width:0.8;" x="208.33797" xlink:href="#md5f26b0902" y="276.48"/>
      </g>
     </g>
     <g id="text_5">
      <!-- 2014 -->
      <defs>
       <path d="M 37.796875 64.3125 
L 12.890625 25.390625 
L 37.796875 25.390625 
z
M 35.203125 72.90625 
L 47.609375 72.90625 
L 47.609375 25.390625 
L 58.015625 25.390625 
L 58.015625 17.1875 
L 47.609375 17.1875 
L 47.609375 0 
L 37.796875 0 
L 37.796875 17.1875 
L 4.890625 17.1875 
L 4.890625 26.703125 
z
" id="DejaVuSans-52"/>
      </defs>
      <g transform="translate(206.258282 308.93)rotate(-90)scale(0.1 -0.1)">
       <use xlink:href="#DejaVuSans-50"/>
       <use x="63.623047" xlink:href="#DejaVuSans-48"/>
       <use x="127.246094" xlink:href="#DejaVuSans-49"/>
       <use x="190.869141" xlink:href="#DejaVuSans-52"/>
      </g>
     </g>
    </g>
    <g id="xtick_6">
     <g id="line2d_11">
      <path clip-path="url(#p8c72864d17)" d="M 242.703591 276.48 
L 242.703591 41.472 
" style="fill:none;stroke:#b0b0b0;stroke-linecap:square;stroke-width:0.8;"/>
     </g>
     <g id="line2d_12">
      <g>
       <use style="stroke:#000000;stroke-width:0.8;" x="242.703591" xlink:href="#md5f26b0902" y="276.48"/>
      </g>
     </g>
     <g id="text_6">
      <!-- 2015 -->
      <defs>
       <path d="M 10.796875 72.90625 
L 49.515625 72.90625 
L 49.515625 64.59375 
L 19.828125 64.59375 
L 19.828125 46.734375 
Q 21.96875 47.46875 24.109375 47.828125 
Q 26.265625 48.1875 28.421875 48.1875 
Q 40.625 48.1875 47.75 41.5 
Q 54.890625 34.8125 54.890625 23.390625 
Q 54.890625 11.625 47.5625 5.09375 
Q 40.234375 -1.421875 26.90625 -1.421875 
Q 22.3125 -1.421875 17.546875 -0.640625 
Q 12.796875 0.140625 7.71875 1.703125 
L 7.71875 11.625 
Q 12.109375 9.234375 16.796875 8.0625 
Q 21.484375 6.890625 26.703125 6.890625 
Q 35.15625 6.890625 40.078125 11.328125 
Q 45.015625 15.765625 45.015625 23.390625 
Q 45.015625 31 40.078125 35.4375 
Q 35.15625 39.890625 26.703125 39.890625 
Q 22.75 39.890625 18.8125 39.015625 
Q 14.890625 38.140625 10.796875 36.28125 
z
" id="DejaVuSans-53"/>
      </defs>
      <g transform="translate(240.623903 308.93)rotate(-90)scale(0.1 -0.1)">
       <use xlink:href="#DejaVuSans-50"/>
       <use x="63.623047" xlink:href="#DejaVuSans-48"/>
       <use x="127.246094" xlink:href="#DejaVuSans-49"/>
       <use x="190.869141" xlink:href="#DejaVuSans-53"/>
      </g>
     </g>
    </g>
    <g id="xtick_7">
     <g id="line2d_13">
      <path clip-path="url(#p8c72864d17)" d="M 277.069212 276.48 
L 277.069212 41.472 
" style="fill:none;stroke:#b0b0b0;stroke-linecap:square;stroke-width:0.8;"/>
     </g>
     <g id="line2d_14">
      <g>
       <use style="stroke:#000000;stroke-width:0.8;" x="277.069212" xlink:href="#md5f26b0902" y="276.48"/>
      </g>
     </g>
     <g id="text_7">
      <!-- 2016 -->
      <defs>
       <path d="M 33.015625 40.375 
Q 26.375 40.375 22.484375 35.828125 
Q 18.609375 31.296875 18.609375 23.390625 
Q 18.609375 15.53125 22.484375 10.953125 
Q 26.375 6.390625 33.015625 6.390625 
Q 39.65625 6.390625 43.53125 10.953125 
Q 47.40625 15.53125 47.40625 23.390625 
Q 47.40625 31.296875 43.53125 35.828125 
Q 39.65625 40.375 33.015625 40.375 
z
M 52.59375 71.296875 
L 52.59375 62.3125 
Q 48.875 64.0625 45.09375 64.984375 
Q 41.3125 65.921875 37.59375 65.921875 
Q 27.828125 65.921875 22.671875 59.328125 
Q 17.53125 52.734375 16.796875 39.40625 
Q 19.671875 43.65625 24.015625 45.921875 
Q 28.375 48.1875 33.59375 48.1875 
Q 44.578125 48.1875 50.953125 41.515625 
Q 57.328125 34.859375 57.328125 23.390625 
Q 57.328125 12.15625 50.6875 5.359375 
Q 44.046875 -1.421875 33.015625 -1.421875 
Q 20.359375 -1.421875 13.671875 8.265625 
Q 6.984375 17.96875 6.984375 36.375 
Q 6.984375 53.65625 15.1875 63.9375 
Q 23.390625 74.21875 37.203125 74.21875 
Q 40.921875 74.21875 44.703125 73.484375 
Q 48.484375 72.75 52.59375 71.296875 
z
" id="DejaVuSans-54"/>
      </defs>
      <g transform="translate(274.989524 308.93)rotate(-90)scale(0.1 -0.1)">
       <use xlink:href="#DejaVuSans-50"/>
       <use x="63.623047" xlink:href="#DejaVuSans-48"/>
       <use x="127.246094" xlink:href="#DejaVuSans-49"/>
       <use x="190.869141" xlink:href="#DejaVuSans-54"/>
      </g>
     </g>
    </g>
    <g id="xtick_8">
     <g id="line2d_15">
      <path clip-path="url(#p8c72864d17)" d="M 311.528985 276.48 
L 311.528985 41.472 
" style="fill:none;stroke:#b0b0b0;stroke-linecap:square;stroke-width:0.8;"/>
     </g>
     <g id="line2d_16">
      <g>
       <use style="stroke:#000000;stroke-width:0.8;" x="311.528985" xlink:href="#md5f26b0902" y="276.48"/>
      </g>
     </g>
     <g id="text_8">
      <!-- 2017 -->
      <defs>
       <path d="M 8.203125 72.90625 
L 55.078125 72.90625 
L 55.078125 68.703125 
L 28.609375 0 
L 18.3125 0 
L 43.21875 64.59375 
L 8.203125 64.59375 
z
" id="DejaVuSans-55"/>
      </defs>
      <g transform="translate(309.449297 308.93)rotate(-90)scale(0.1 -0.1)">
       <use xlink:href="#DejaVuSans-50"/>
       <use x="63.623047" xlink:href="#DejaVuSans-48"/>
       <use x="127.246094" xlink:href="#DejaVuSans-49"/>
       <use x="190.869141" xlink:href="#DejaVuSans-55"/>
      </g>
     </g>
    </g>
    <g id="xtick_9">
     <g id="line2d_17">
      <path clip-path="url(#p8c72864d17)" d="M 345.894606 276.48 
L 345.894606 41.472 
" style="fill:none;stroke:#b0b0b0;stroke-linecap:square;stroke-width:0.8;"/>
     </g>
     <g id="line2d_18">
      <g>
       <use style="stroke:#000000;stroke-width:0.8;" x="345.894606" xlink:href="#md5f26b0902" y="276.48"/>
      </g>
     </g>
     <g id="text_9">
      <!-- 2018 -->
      <defs>
       <path d="M 31.78125 34.625 
Q 24.75 34.625 20.71875 30.859375 
Q 16.703125 27.09375 16.703125 20.515625 
Q 16.703125 13.921875 20.71875 10.15625 
Q 24.75 6.390625 31.78125 6.390625 
Q 38.8125 6.390625 42.859375 10.171875 
Q 46.921875 13.96875 46.921875 20.515625 
Q 46.921875 27.09375 42.890625 30.859375 
Q 38.875 34.625 31.78125 34.625 
z
M 21.921875 38.8125 
Q 15.578125 40.375 12.03125 44.71875 
Q 8.5 49.078125 8.5 55.328125 
Q 8.5 64.0625 14.71875 69.140625 
Q 20.953125 74.21875 31.78125 74.21875 
Q 42.671875 74.21875 48.875 69.140625 
Q 55.078125 64.0625 55.078125 55.328125 
Q 55.078125 49.078125 51.53125 44.71875 
Q 48 40.375 41.703125 38.8125 
Q 48.828125 37.15625 52.796875 32.3125 
Q 56.78125 27.484375 56.78125 20.515625 
Q 56.78125 9.90625 50.3125 4.234375 
Q 43.84375 -1.421875 31.78125 -1.421875 
Q 19.734375 -1.421875 13.25 4.234375 
Q 6.78125 9.90625 6.78125 20.515625 
Q 6.78125 27.484375 10.78125 32.3125 
Q 14.796875 37.15625 21.921875 38.8125 
z
M 18.3125 54.390625 
Q 18.3125 48.734375 21.84375 45.5625 
Q 25.390625 42.390625 31.78125 42.390625 
Q 38.140625 42.390625 41.71875 45.5625 
Q 45.3125 48.734375 45.3125 54.390625 
Q 45.3125 60.0625 41.71875 63.234375 
Q 38.140625 66.40625 31.78125 66.40625 
Q 25.390625 66.40625 21.84375 63.234375 
Q 18.3125 60.0625 18.3125 54.390625 
z
" id="DejaVuSans-56"/>
      </defs>
      <g transform="translate(343.814918 308.93)rotate(-90)scale(0.1 -0.1)">
       <use xlink:href="#DejaVuSans-50"/>
       <use x="63.623047" xlink:href="#DejaVuSans-48"/>
       <use x="127.246094" xlink:href="#DejaVuSans-49"/>
       <use x="190.869141" xlink:href="#DejaVuSans-56"/>
      </g>
     </g>
    </g>
    <g id="xtick_10">
     <g id="line2d_19">
      <path clip-path="url(#p8c72864d17)" d="M 380.260227 276.48 
L 380.260227 41.472 
" style="fill:none;stroke:#b0b0b0;stroke-linecap:square;stroke-width:0.8;"/>
     </g>
     <g id="line2d_20">
      <g>
       <use style="stroke:#000000;stroke-width:0.8;" x="380.260227" xlink:href="#md5f26b0902" y="276.48"/>
      </g>
     </g>
     <g id="text_10">
      <!-- 2019 -->
      <defs>
       <path d="M 10.984375 1.515625 
L 10.984375 10.5 
Q 14.703125 8.734375 18.5 7.8125 
Q 22.3125 6.890625 25.984375 6.890625 
Q 35.75 6.890625 40.890625 13.453125 
Q 46.046875 20.015625 46.78125 33.40625 
Q 43.953125 29.203125 39.59375 26.953125 
Q 35.25 24.703125 29.984375 24.703125 
Q 19.046875 24.703125 12.671875 31.3125 
Q 6.296875 37.9375 6.296875 49.421875 
Q 6.296875 60.640625 12.9375 67.421875 
Q 19.578125 74.21875 30.609375 74.21875 
Q 43.265625 74.21875 49.921875 64.515625 
Q 56.59375 54.828125 56.59375 36.375 
Q 56.59375 19.140625 48.40625 8.859375 
Q 40.234375 -1.421875 26.421875 -1.421875 
Q 22.703125 -1.421875 18.890625 -0.6875 
Q 15.09375 0.046875 10.984375 1.515625 
z
M 30.609375 32.421875 
Q 37.25 32.421875 41.125 36.953125 
Q 45.015625 41.5 45.015625 49.421875 
Q 45.015625 57.28125 41.125 61.84375 
Q 37.25 66.40625 30.609375 66.40625 
Q 23.96875 66.40625 20.09375 61.84375 
Q 16.21875 57.28125 16.21875 49.421875 
Q 16.21875 41.5 20.09375 36.953125 
Q 23.96875 32.421875 30.609375 32.421875 
z
" id="DejaVuSans-57"/>
      </defs>
      <g transform="translate(378.180539 308.93)rotate(-90)scale(0.1 -0.1)">
       <use xlink:href="#DejaVuSans-50"/>
       <use x="63.623047" xlink:href="#DejaVuSans-48"/>
       <use x="127.246094" xlink:href="#DejaVuSans-49"/>
       <use x="190.869141" xlink:href="#DejaVuSans-57"/>
      </g>
     </g>
    </g>
    <g id="xtick_11">
     <g id="line2d_21">
      <path clip-path="url(#p8c72864d17)" d="M 414.625848 276.48 
L 414.625848 41.472 
" style="fill:none;stroke:#b0b0b0;stroke-linecap:square;stroke-width:0.8;"/>
     </g>
     <g id="line2d_22">
      <g>
       <use style="stroke:#000000;stroke-width:0.8;" x="414.625848" xlink:href="#md5f26b0902" y="276.48"/>
      </g>
     </g>
     <g id="text_11">
      <!-- 2020 -->
      <g transform="translate(412.54616 308.93)rotate(-90)scale(0.1 -0.1)">
       <use xlink:href="#DejaVuSans-50"/>
       <use x="63.623047" xlink:href="#DejaVuSans-48"/>
       <use x="127.246094" xlink:href="#DejaVuSans-50"/>
       <use x="190.869141" xlink:href="#DejaVuSans-48"/>
      </g>
     </g>
    </g>
    <g id="text_12">
     <!-- Date, Year -->
     <defs>
      <path d="M 19.671875 64.796875 
L 19.671875 8.109375 
L 31.59375 8.109375 
Q 46.6875 8.109375 53.6875 14.9375 
Q 60.6875 21.78125 60.6875 36.53125 
Q 60.6875 51.171875 53.6875 57.984375 
Q 46.6875 64.796875 31.59375 64.796875 
z
M 9.8125 72.90625 
L 30.078125 72.90625 
Q 51.265625 72.90625 61.171875 64.09375 
Q 71.09375 55.28125 71.09375 36.53125 
Q 71.09375 17.671875 61.125 8.828125 
Q 51.171875 0 30.078125 0 
L 9.8125 0 
z
" id="DejaVuSans-68"/>
      <path d="M 34.28125 27.484375 
Q 23.390625 27.484375 19.1875 25 
Q 14.984375 22.515625 14.984375 16.5 
Q 14.984375 11.71875 18.140625 8.90625 
Q 21.296875 6.109375 26.703125 6.109375 
Q 34.1875 6.109375 38.703125 11.40625 
Q 43.21875 16.703125 43.21875 25.484375 
L 43.21875 27.484375 
z
M 52.203125 31.203125 
L 52.203125 0 
L 43.21875 0 
L 43.21875 8.296875 
Q 40.140625 3.328125 35.546875 0.953125 
Q 30.953125 -1.421875 24.3125 -1.421875 
Q 15.921875 -1.421875 10.953125 3.296875 
Q 6 8.015625 6 15.921875 
Q 6 25.140625 12.171875 29.828125 
Q 18.359375 34.515625 30.609375 34.515625 
L 43.21875 34.515625 
L 43.21875 35.40625 
Q 43.21875 41.609375 39.140625 45 
Q 35.0625 48.390625 27.6875 48.390625 
Q 23 48.390625 18.546875 47.265625 
Q 14.109375 46.140625 10.015625 43.890625 
L 10.015625 52.203125 
Q 14.9375 54.109375 19.578125 55.046875 
Q 24.21875 56 28.609375 56 
Q 40.484375 56 46.34375 49.84375 
Q 52.203125 43.703125 52.203125 31.203125 
z
" id="DejaVuSans-97"/>
      <path d="M 18.3125 70.21875 
L 18.3125 54.6875 
L 36.8125 54.6875 
L 36.8125 47.703125 
L 18.3125 47.703125 
L 18.3125 18.015625 
Q 18.3125 11.328125 20.140625 9.421875 
Q 21.96875 7.515625 27.59375 7.515625 
L 36.8125 7.515625 
L 36.8125 0 
L 27.59375 0 
Q 17.1875 0 13.234375 3.875 
Q 9.28125 7.765625 9.28125 18.015625 
L 9.28125 47.703125 
L 2.6875 47.703125 
L 2.6875 54.6875 
L 9.28125 54.6875 
L 9.28125 70.21875 
z
" id="DejaVuSans-116"/>
      <path d="M 56.203125 29.59375 
L 56.203125 25.203125 
L 14.890625 25.203125 
Q 15.484375 15.921875 20.484375 11.0625 
Q 25.484375 6.203125 34.421875 6.203125 
Q 39.59375 6.203125 44.453125 7.46875 
Q 49.3125 8.734375 54.109375 11.28125 
L 54.109375 2.78125 
Q 49.265625 0.734375 44.1875 -0.34375 
Q 39.109375 -1.421875 33.890625 -1.421875 
Q 20.796875 -1.421875 13.15625 6.1875 
Q 5.515625 13.8125 5.515625 26.8125 
Q 5.515625 40.234375 12.765625 48.109375 
Q 20.015625 56 32.328125 56 
Q 43.359375 56 49.78125 48.890625 
Q 56.203125 41.796875 56.203125 29.59375 
z
M 47.21875 32.234375 
Q 47.125 39.59375 43.09375 43.984375 
Q 39.0625 48.390625 32.421875 48.390625 
Q 24.90625 48.390625 20.390625 44.140625 
Q 15.875 39.890625 15.1875 32.171875 
z
" id="DejaVuSans-101"/>
      <path d="M 11.71875 12.40625 
L 22.015625 12.40625 
L 22.015625 4 
L 14.015625 -11.625 
L 7.71875 -11.625 
L 11.71875 4 
z
" id="DejaVuSans-44"/>
      <path id="DejaVuSans-32"/>
      <path d="M -0.203125 72.90625 
L 10.40625 72.90625 
L 30.609375 42.921875 
L 50.6875 72.90625 
L 61.28125 72.90625 
L 35.5 34.71875 
L 35.5 0 
L 25.59375 0 
L 25.59375 34.71875 
z
" id="DejaVuSans-89"/>
      <path d="M 41.109375 46.296875 
Q 39.59375 47.171875 37.8125 47.578125 
Q 36.03125 48 33.890625 48 
Q 26.265625 48 22.1875 43.046875 
Q 18.109375 38.09375 18.109375 28.8125 
L 18.109375 0 
L 9.078125 0 
L 9.078125 54.6875 
L 18.109375 54.6875 
L 18.109375 46.1875 
Q 20.953125 51.171875 25.484375 53.578125 
Q 30.03125 56 36.53125 56 
Q 37.453125 56 38.578125 55.875 
Q 39.703125 55.765625 41.0625 55.515625 
z
" id="DejaVuSans-114"/>
     </defs>
     <g transform="translate(209.79125 320.528437)scale(0.1 -0.1)">
      <use xlink:href="#DejaVuSans-68"/>
      <use x="77.001953" xlink:href="#DejaVuSans-97"/>
      <use x="138.28125" xlink:href="#DejaVuSans-116"/>
      <use x="177.490234" xlink:href="#DejaVuSans-101"/>
      <use x="239.013672" xlink:href="#DejaVuSans-44"/>
      <use x="270.800781" xlink:href="#DejaVuSans-32"/>
      <use x="302.587891" xlink:href="#DejaVuSans-89"/>
      <use x="363.46875" xlink:href="#DejaVuSans-101"/>
      <use x="424.992188" xlink:href="#DejaVuSans-97"/>
      <use x="486.271484" xlink:href="#DejaVuSans-114"/>
     </g>
    </g>
   </g>
   <g id="matplotlib.axis_2">
    <g id="ytick_1">
     <g id="line2d_23">
      <path clip-path="url(#p8c72864d17)" d="M 57.6 252.088066 
L 414.72 252.088066 
" style="fill:none;stroke:#b0b0b0;stroke-linecap:square;stroke-width:0.8;"/>
     </g>
     <g id="line2d_24">
      <defs>
       <path d="M 0 0 
L -3.5 0 
" id="m6a8da1e1e1" style="stroke:#000000;stroke-width:0.8;"/>
      </defs>
      <g>
       <use style="stroke:#000000;stroke-width:0.8;" x="57.6" xlink:href="#m6a8da1e1e1" y="252.088066"/>
      </g>
     </g>
     <g id="text_13">
      <!-- 7 -->
      <g transform="translate(44.2375 255.887285)scale(0.1 -0.1)">
       <use xlink:href="#DejaVuSans-55"/>
      </g>
     </g>
    </g>
    <g id="ytick_2">
     <g id="line2d_25">
      <path clip-path="url(#p8c72864d17)" d="M 57.6 214.005421 
L 414.72 214.005421 
" style="fill:none;stroke:#b0b0b0;stroke-linecap:square;stroke-width:0.8;"/>
     </g>
     <g id="line2d_26">
      <g>
       <use style="stroke:#000000;stroke-width:0.8;" x="57.6" xlink:href="#m6a8da1e1e1" y="214.005421"/>
      </g>
     </g>
     <g id="text_14">
      <!-- 8 -->
      <g transform="translate(44.2375 217.80464)scale(0.1 -0.1)">
       <use xlink:href="#DejaVuSans-56"/>
      </g>
     </g>
    </g>
    <g id="ytick_3">
     <g id="line2d_27">
      <path clip-path="url(#p8c72864d17)" d="M 57.6 175.922777 
L 414.72 175.922777 
" style="fill:none;stroke:#b0b0b0;stroke-linecap:square;stroke-width:0.8;"/>
     </g>
     <g id="line2d_28">
      <g>
       <use style="stroke:#000000;stroke-width:0.8;" x="57.6" xlink:href="#m6a8da1e1e1" y="175.922777"/>
      </g>
     </g>
     <g id="text_15">
      <!-- 9 -->
      <g transform="translate(44.2375 179.721996)scale(0.1 -0.1)">
       <use xlink:href="#DejaVuSans-57"/>
      </g>
     </g>
    </g>
    <g id="ytick_4">
     <g id="line2d_29">
      <path clip-path="url(#p8c72864d17)" d="M 57.6 137.840132 
L 414.72 137.840132 
" style="fill:none;stroke:#b0b0b0;stroke-linecap:square;stroke-width:0.8;"/>
     </g>
     <g id="line2d_30">
      <g>
       <use style="stroke:#000000;stroke-width:0.8;" x="57.6" xlink:href="#m6a8da1e1e1" y="137.840132"/>
      </g>
     </g>
     <g id="text_16">
      <!-- 10 -->
      <g transform="translate(37.875 141.639351)scale(0.1 -0.1)">
       <use xlink:href="#DejaVuSans-49"/>
       <use x="63.623047" xlink:href="#DejaVuSans-48"/>
      </g>
     </g>
    </g>
    <g id="ytick_5">
     <g id="line2d_31">
      <path clip-path="url(#p8c72864d17)" d="M 57.6 99.757488 
L 414.72 99.757488 
" style="fill:none;stroke:#b0b0b0;stroke-linecap:square;stroke-width:0.8;"/>
     </g>
     <g id="line2d_32">
      <g>
       <use style="stroke:#000000;stroke-width:0.8;" x="57.6" xlink:href="#m6a8da1e1e1" y="99.757488"/>
      </g>
     </g>
     <g id="text_17">
      <!-- 11 -->
      <g transform="translate(37.875 103.556706)scale(0.1 -0.1)">
       <use xlink:href="#DejaVuSans-49"/>
       <use x="63.623047" xlink:href="#DejaVuSans-49"/>
      </g>
     </g>
    </g>
    <g id="ytick_6">
     <g id="line2d_33">
      <path clip-path="url(#p8c72864d17)" d="M 57.6 61.674843 
L 414.72 61.674843 
" style="fill:none;stroke:#b0b0b0;stroke-linecap:square;stroke-width:0.8;"/>
     </g>
     <g id="line2d_34">
      <g>
       <use style="stroke:#000000;stroke-width:0.8;" x="57.6" xlink:href="#m6a8da1e1e1" y="61.674843"/>
      </g>
     </g>
     <g id="text_18">
      <!-- 12 -->
      <g transform="translate(37.875 65.474062)scale(0.1 -0.1)">
       <use xlink:href="#DejaVuSans-49"/>
       <use x="63.623047" xlink:href="#DejaVuSans-50"/>
      </g>
     </g>
    </g>
    <g id="text_19">
     <!-- Net Asset Value, NAV -->
     <defs>
      <path d="M 9.8125 72.90625 
L 23.09375 72.90625 
L 55.421875 11.921875 
L 55.421875 72.90625 
L 64.984375 72.90625 
L 64.984375 0 
L 51.703125 0 
L 19.390625 60.984375 
L 19.390625 0 
L 9.8125 0 
z
" id="DejaVuSans-78"/>
      <path d="M 34.1875 63.1875 
L 20.796875 26.90625 
L 47.609375 26.90625 
z
M 28.609375 72.90625 
L 39.796875 72.90625 
L 67.578125 0 
L 57.328125 0 
L 50.6875 18.703125 
L 17.828125 18.703125 
L 11.1875 0 
L 0.78125 0 
z
" id="DejaVuSans-65"/>
      <path d="M 44.28125 53.078125 
L 44.28125 44.578125 
Q 40.484375 46.53125 36.375 47.5 
Q 32.28125 48.484375 27.875 48.484375 
Q 21.1875 48.484375 17.84375 46.4375 
Q 14.5 44.390625 14.5 40.28125 
Q 14.5 37.15625 16.890625 35.375 
Q 19.28125 33.59375 26.515625 31.984375 
L 29.59375 31.296875 
Q 39.15625 29.25 43.1875 25.515625 
Q 47.21875 21.78125 47.21875 15.09375 
Q 47.21875 7.46875 41.1875 3.015625 
Q 35.15625 -1.421875 24.609375 -1.421875 
Q 20.21875 -1.421875 15.453125 -0.5625 
Q 10.6875 0.296875 5.421875 2 
L 5.421875 11.28125 
Q 10.40625 8.6875 15.234375 7.390625 
Q 20.0625 6.109375 24.8125 6.109375 
Q 31.15625 6.109375 34.5625 8.28125 
Q 37.984375 10.453125 37.984375 14.40625 
Q 37.984375 18.0625 35.515625 20.015625 
Q 33.0625 21.96875 24.703125 23.78125 
L 21.578125 24.515625 
Q 13.234375 26.265625 9.515625 29.90625 
Q 5.8125 33.546875 5.8125 39.890625 
Q 5.8125 47.609375 11.28125 51.796875 
Q 16.75 56 26.8125 56 
Q 31.78125 56 36.171875 55.265625 
Q 40.578125 54.546875 44.28125 53.078125 
z
" id="DejaVuSans-115"/>
      <path d="M 28.609375 0 
L 0.78125 72.90625 
L 11.078125 72.90625 
L 34.1875 11.53125 
L 57.328125 72.90625 
L 67.578125 72.90625 
L 39.796875 0 
z
" id="DejaVuSans-86"/>
      <path d="M 9.421875 75.984375 
L 18.40625 75.984375 
L 18.40625 0 
L 9.421875 0 
z
" id="DejaVuSans-108"/>
      <path d="M 8.5 21.578125 
L 8.5 54.6875 
L 17.484375 54.6875 
L 17.484375 21.921875 
Q 17.484375 14.15625 20.5 10.265625 
Q 23.53125 6.390625 29.59375 6.390625 
Q 36.859375 6.390625 41.078125 11.03125 
Q 45.3125 15.671875 45.3125 23.6875 
L 45.3125 54.6875 
L 54.296875 54.6875 
L 54.296875 0 
L 45.3125 0 
L 45.3125 8.40625 
Q 42.046875 3.421875 37.71875 1 
Q 33.40625 -1.421875 27.6875 -1.421875 
Q 18.265625 -1.421875 13.375 4.4375 
Q 8.5 10.296875 8.5 21.578125 
z
M 31.109375 56 
z
" id="DejaVuSans-117"/>
     </defs>
     <g transform="translate(31.795312 212.465844)rotate(-90)scale(0.1 -0.1)">
      <use xlink:href="#DejaVuSans-78"/>
      <use x="74.804688" xlink:href="#DejaVuSans-101"/>
      <use x="136.328125" xlink:href="#DejaVuSans-116"/>
      <use x="175.537109" xlink:href="#DejaVuSans-32"/>
      <use x="207.324219" xlink:href="#DejaVuSans-65"/>
      <use x="275.732422" xlink:href="#DejaVuSans-115"/>
      <use x="327.832031" xlink:href="#DejaVuSans-115"/>
      <use x="379.931641" xlink:href="#DejaVuSans-101"/>
      <use x="441.455078" xlink:href="#DejaVuSans-116"/>
      <use x="480.664062" xlink:href="#DejaVuSans-32"/>
      <use x="512.451172" xlink:href="#DejaVuSans-86"/>
      <use x="580.75" xlink:href="#DejaVuSans-97"/>
      <use x="642.029297" xlink:href="#DejaVuSans-108"/>
      <use x="669.8125" xlink:href="#DejaVuSans-117"/>
      <use x="733.191406" xlink:href="#DejaVuSans-101"/>
      <use x="794.714844" xlink:href="#DejaVuSans-44"/>
      <use x="826.501953" xlink:href="#DejaVuSans-32"/>
      <use x="858.289062" xlink:href="#DejaVuSans-78"/>
      <use x="933.09375" xlink:href="#DejaVuSans-65"/>
      <use x="1001.408203" xlink:href="#DejaVuSans-86"/>
     </g>
    </g>
   </g>
   <g id="line2d_35">
    <path clip-path="url(#p8c72864d17)" d="M 57.6 137.840132 
L 57.882457 138.982612 
L 58.541524 132.127736 
L 58.729829 132.508562 
L 58.823981 132.508562 
L 58.918133 132.127736 
L 59.200591 132.508562 
L 59.388895 134.412694 
L 59.5772 130.60443 
L 59.859657 130.223603 
L 60.236267 126.034512 
L 60.518724 125.653686 
L 60.801181 117.656331 
L 60.895334 117.275504 
L 61.177791 116.894678 
L 61.366095 115.371372 
L 61.460248 115.752198 
L 61.836857 114.609719 
L 61.93101 114.609719 
L 62.119315 112.32476 
L 62.213467 112.32476 
L 62.684229 106.612364 
L 62.872534 108.135669 
L 63.249143 107.754843 
L 63.437448 106.231537 
L 63.5316 106.99319 
L 64.002362 106.99319 
L 64.096515 108.135669 
L 64.190667 106.99319 
L 64.473124 107.754843 
L 64.661429 110.801455 
L 64.755581 109.278149 
L 65.226343 111.182281 
L 65.5088 108.135669 
L 65.791258 107.374017 
L 65.979562 106.612364 
L 66.073715 106.99319 
L 66.167867 105.089058 
L 66.638629 103.184926 
L 66.826934 105.469884 
L 67.203543 103.184926 
L 67.297696 101.280793 
L 67.486001 105.469884 
L 67.768458 106.99319 
L 67.956762 104.708231 
L 68.050915 104.327405 
L 68.145067 105.089058 
L 68.427524 105.469884 
L 68.615829 108.897322 
L 68.804134 106.612364 
L 69.086591 104.708231 
L 69.274896 105.089058 
L 69.369048 106.99319 
L 69.463201 106.612364 
L 69.745658 106.612364 
L 70.028115 105.469884 
L 70.687182 104.327405 
L 71.063791 101.280793 
L 71.346248 96.710876 
L 71.722858 93.283438 
L 71.911163 94.806744 
L 72.099467 95.949223 
L 72.476077 95.568397 
L 72.758534 102.042446 
L 73.040991 100.899967 
L 73.229296 103.565752 
L 73.417601 104.327405 
L 73.700058 103.565752 
L 73.888363 101.280793 
L 74.076668 106.99319 
L 74.359125 111.943934 
L 74.547429 109.278149 
L 74.641582 107.754843 
L 74.735734 108.135669 
L 75.018191 107.754843 
L 75.206496 104.708231 
L 75.677258 102.804099 
L 75.77141 104.327405 
L 75.865563 103.565752 
L 75.959715 104.327405 
L 76.053868 102.042446 
L 76.430477 98.234182 
L 76.712934 93.664264 
L 76.995392 94.425917 
L 77.372001 91.379306 
L 77.654458 91.760132 
L 77.748611 91.379306 
L 77.842763 89.475174 
L 78.031068 90.617653 
L 78.313525 91.760132 
L 78.407677 90.617653 
L 78.595982 90.998479 
L 78.690134 90.998479 
L 79.066744 88.332694 
L 79.255049 85.666909 
L 79.725811 83.762777 
L 79.819963 84.52443 
L 79.914115 86.428562 
L 80.008268 85.666909 
L 80.384877 84.905256 
L 80.573182 83.38195 
L 80.667335 84.52443 
L 80.949792 86.047736 
L 81.138096 83.38195 
L 81.232249 84.143603 
L 81.326401 83.38195 
L 81.608858 82.620298 
L 81.797163 85.666909 
L 81.891316 83.762777 
L 81.985468 84.143603 
L 82.267925 83.38195 
L 82.45623 89.856 
L 82.644535 100.138314 
L 82.926992 92.140959 
L 83.021144 92.521785 
L 83.209449 90.236826 
L 83.303601 92.140959 
L 83.680211 95.18757 
L 83.962668 106.612364 
L 84.245125 107.374017 
L 84.339278 112.705587 
L 84.43343 110.420628 
L 84.621735 102.423273 
L 84.904192 101.66162 
L 84.998344 104.708231 
L 85.186649 100.51914 
L 85.280801 104.327405 
L 85.657411 108.135669 
L 85.751563 107.754843 
L 85.939868 104.327405 
L 86.316478 102.042446 
L 86.881392 94.045091 
L 86.975544 95.18757 
L 87.258002 98.615008 
L 87.540459 97.472529 
L 87.728764 101.280793 
L 87.822916 102.042446 
L 87.917068 101.280793 
L 88.199525 100.899967 
L 88.576135 98.234182 
L 88.952745 98.234182 
L 89.046897 97.091702 
L 89.517659 98.995835 
L 89.894268 94.425917 
L 90.176726 93.283438 
L 90.36503 90.998479 
L 91.212402 84.52443 
L 91.494859 84.905256 
L 91.777316 88.713521 
L 91.871468 87.951868 
L 92.153926 87.571041 
L 92.34223 84.143603 
L 92.530535 83.762777 
L 92.812992 84.52443 
L 93.001297 87.190215 
L 93.09545 87.190215 
L 93.189602 86.809388 
L 93.472059 87.951868 
L 93.566211 89.094347 
L 93.754516 84.905256 
L 93.848669 83.762777 
L 94.131126 83.001124 
L 94.319431 86.047736 
L 94.507735 84.905256 
L 95.07265 82.239471 
L 95.166802 81.477818 
L 95.449259 81.096992 
L 95.637564 78.812033 
L 95.731716 79.19286 
L 95.825869 78.05038 
L 96.390783 74.622942 
L 96.484935 72.71881 
L 96.767393 72.337983 
L 97.04985 70.053025 
L 97.144002 71.576331 
L 97.520612 70.814678 
L 97.708916 68.148893 
L 98.085526 69.291372 
L 98.179678 72.337983 
L 98.273831 71.957157 
L 98.462136 72.71881 
L 98.744593 71.576331 
L 98.838745 71.957157 
L 98.932897 73.480463 
L 99.403659 71.576331 
L 99.780269 67.006413 
L 100.156878 70.814678 
L 100.251031 71.195504 
L 100.345183 72.337983 
L 100.439336 75.003769 
L 100.721793 76.527074 
L 100.910098 78.431207 
L 101.098402 75.384595 
L 101.380859 75.765421 
L 101.475012 79.573686 
L 101.663317 78.812033 
L 101.757469 81.096992 
L 102.134079 83.762777 
L 102.416536 78.431207 
L 102.698993 78.05038 
L 102.793145 76.907901 
L 102.98145 80.716165 
L 103.075602 80.335339 
L 103.35806 79.954512 
L 103.452212 79.573686 
L 103.640517 81.477818 
L 103.734669 80.716165 
L 104.017126 81.477818 
L 104.299583 79.573686 
L 104.676193 79.573686 
L 104.864498 79.19286 
L 105.052803 77.288727 
L 105.523564 73.861289 
L 105.994326 78.812033 
L 106.088479 78.431207 
L 106.182631 76.146248 
L 106.276784 76.527074 
L 106.370936 77.288727 
L 106.653393 77.288727 
L 106.841698 76.907901 
L 107.030003 79.19286 
L 107.31246 78.812033 
L 107.594917 77.669554 
L 107.689069 80.335339 
L 107.971526 80.335339 
L 108.159831 77.669554 
L 108.253984 78.431207 
L 108.348136 77.288727 
L 108.630593 76.527074 
L 108.724746 76.907901 
L 108.91305 78.812033 
L 109.383812 78.812033 
L 109.666269 76.146248 
L 109.948727 76.527074 
L 110.137031 79.19286 
L 110.231184 79.573686 
L 110.325336 78.812033 
L 110.796098 77.288727 
L 110.984403 75.384595 
L 111.26686 75.384595 
L 111.361012 76.907901 
L 111.455165 76.527074 
L 111.64347 77.669554 
L 111.925927 77.288727 
L 112.114231 81.096992 
L 112.208384 81.096992 
L 112.302536 78.812033 
L 112.773298 75.765421 
L 112.961603 73.480463 
L 113.24406 73.480463 
L 113.338212 73.099636 
L 113.62067 68.148893 
L 113.903127 67.006413 
L 114.185584 64.340628 
L 114.562194 65.483107 
L 114.656346 67.006413 
L 114.750498 65.863934 
L 114.844651 66.24476 
L 114.938803 65.863934 
L 115.22126 67.768066 
L 115.503717 65.102281 
L 115.880327 65.102281 
L 116.256936 62.055669 
L 116.539394 61.294017 
L 116.821851 64.721455 
L 116.916003 63.959802 
L 117.19846 65.483107 
L 117.386765 64.721455 
L 117.57507 65.863934 
L 117.857527 66.625587 
L 118.234137 63.578975 
L 118.516594 65.863934 
L 118.610746 65.483107 
L 118.704898 66.24476 
L 118.893203 64.721455 
L 119.17566 63.959802 
L 119.269813 62.436496 
L 119.363965 63.198149 
L 119.55227 62.436496 
L 119.834727 62.817322 
L 119.92888 62.436496 
L 120.211337 65.483107 
L 120.493794 65.483107 
L 120.587946 64.721455 
L 120.682099 65.483107 
L 120.870403 67.768066 
L 121.152861 67.768066 
L 121.341165 66.24476 
L 121.52947 68.148893 
L 121.811927 68.529719 
L 122.188537 62.817322 
L 122.470994 62.055669 
L 122.659299 62.436496 
L 122.753451 61.294017 
L 122.847603 63.198149 
L 123.130061 64.721455 
L 123.224213 67.006413 
L 123.412518 65.483107 
L 123.50667 65.483107 
L 123.789127 66.625587 
L 124.071584 63.578975 
L 124.165737 62.817322 
L 124.448194 63.198149 
L 124.542346 62.055669 
L 124.730651 62.436496 
L 125.107261 60.532364 
L 125.48387 65.102281 
L 125.954632 73.480463 
L 126.048785 73.480463 
L 126.613699 68.529719 
L 126.802004 70.433851 
L 127.084461 69.672198 
L 127.178613 68.910545 
L 127.366918 71.195504 
L 127.46107 70.433851 
L 127.83768 69.291372 
L 128.025985 67.768066 
L 128.402594 70.053025 
L 128.496747 70.053025 
L 128.590899 68.910545 
L 128.779204 72.337983 
L 129.155813 77.288727 
L 129.344118 81.477818 
L 129.43827 81.858645 
L 129.81488 87.571041 
L 130.003185 99.757488 
L 130.097337 99.376661 
L 130.379794 103.184926 
L 130.473947 100.138314 
L 130.756404 105.089058 
L 131.038861 108.135669 
L 131.133013 111.563107 
L 131.415471 104.327405 
L 131.697928 103.565752 
L 131.79208 102.042446 
L 131.980385 97.472529 
L 132.074537 95.568397 
L 132.356994 95.568397 
L 132.451147 96.33005 
L 132.545299 94.806744 
L 132.639452 97.472529 
L 132.733604 96.710876 
L 133.110214 92.902612 
L 133.204366 92.521785 
L 133.392671 83.762777 
L 133.675128 85.286083 
L 133.863433 90.236826 
L 134.051737 88.332694 
L 134.334195 88.713521 
L 134.428347 87.571041 
L 134.616652 94.806744 
L 134.710804 93.664264 
L 134.993261 95.18757 
L 135.181566 98.615008 
L 135.369871 99.376661 
L 135.74648 103.946579 
L 136.028938 110.420628 
L 136.405547 107.754843 
L 136.688004 98.615008 
L 136.970461 97.091702 
L 137.064614 97.472529 
L 137.158766 97.091702 
L 137.347071 101.280793 
L 137.629528 103.184926 
L 137.817833 105.850711 
L 137.911985 105.469884 
L 138.006138 104.327405 
L 138.288595 105.089058 
L 138.4769 102.423273 
L 138.665204 102.423273 
L 139.135966 102.804099 
L 139.324271 103.946579 
L 139.606728 104.327405 
L 139.700881 102.042446 
L 139.889185 103.184926 
L 139.983338 102.804099 
L 140.265795 106.612364 
L 140.359947 104.327405 
L 140.4541 105.089058 
L 140.548252 103.184926 
L 140.642404 103.565752 
L 140.924862 103.565752 
L 141.583928 92.140959 
L 141.678081 92.140959 
L 141.960538 86.809388 
L 142.242995 88.332694 
L 142.337147 87.571041 
L 142.619605 81.477818 
L 142.902062 81.858645 
L 142.996214 80.716165 
L 143.090366 81.477818 
L 143.184519 81.096992 
L 143.278671 83.001124 
L 143.561128 81.477818 
L 143.655281 81.858645 
L 143.843586 81.477818 
L 143.937738 79.954512 
L 144.220195 78.431207 
L 144.4085 78.812033 
L 144.502652 78.05038 
L 144.596805 78.431207 
L 144.879262 78.812033 
L 145.255871 75.384595 
L 145.538328 76.907901 
L 145.632481 79.954512 
L 145.726633 79.573686 
L 145.820786 79.19286 
L 145.914938 78.05038 
L 146.197395 79.19286 
L 146.291548 78.05038 
L 146.3857 79.19286 
L 146.574005 78.431207 
L 146.856462 78.431207 
L 147.138919 81.477818 
L 147.233071 81.096992 
L 147.609681 80.335339 
L 147.797986 82.239471 
L 147.892138 81.477818 
L 148.268748 80.335339 
L 148.457052 81.477818 
L 148.833662 82.239471 
L 149.021967 86.428562 
L 149.116119 85.286083 
L 149.492729 86.809388 
L 149.586881 86.047736 
L 149.775186 87.571041 
L 149.869338 86.428562 
L 150.151795 87.571041 
L 150.528405 83.38195 
L 150.810862 83.38195 
L 150.999167 81.858645 
L 151.093319 81.858645 
L 151.187472 83.001124 
L 151.469929 82.620298 
L 151.564081 84.52443 
L 151.658234 89.475174 
L 151.752386 87.951868 
L 152.505605 100.51914 
L 152.882215 100.51914 
L 153.070519 103.946579 
L 153.164672 103.946579 
L 153.541281 103.184926 
L 153.823738 110.801455 
L 154.106196 111.182281 
L 154.388653 103.565752 
L 154.482805 106.612364 
L 154.765262 107.754843 
L 155.612634 100.51914 
L 155.800939 102.423273 
L 156.083396 102.804099 
L 156.271701 100.51914 
L 156.365853 101.66162 
L 156.460005 96.710876 
L 156.742462 95.568397 
L 156.836615 93.283438 
L 156.930767 93.664264 
L 157.02492 93.664264 
L 157.119072 95.18757 
L 157.401529 96.710876 
L 157.589834 95.568397 
L 157.683986 96.33005 
L 157.778139 94.425917 
L 158.060596 92.902612 
L 158.248901 90.998479 
L 158.343053 89.856 
L 158.719663 93.664264 
L 158.813815 94.806744 
L 158.907967 94.045091 
L 159.096272 89.856 
L 159.472882 87.951868 
L 159.567034 86.809388 
L 159.661186 87.571041 
L 159.755339 85.286083 
L 160.131948 82.239471 
L 160.226101 83.762777 
L 160.320253 83.001124 
L 160.414405 83.762777 
L 160.791015 84.905256 
L 161.073472 84.143603 
L 161.355929 83.762777 
L 161.544234 82.620298 
L 161.732539 82.620298 
L 162.014996 82.239471 
L 162.109148 82.620298 
L 162.297453 84.143603 
L 162.391606 83.001124 
L 162.674063 82.620298 
L 162.862368 81.477818 
L 163.050672 76.527074 
L 163.333129 77.669554 
L 163.709739 70.814678 
L 163.992196 70.814678 
L 164.086349 71.576331 
L 164.180501 71.195504 
L 164.274653 71.957157 
L 164.368806 71.576331 
L 164.651263 72.71881 
L 164.745415 71.957157 
L 164.839568 73.099636 
L 165.027872 71.195504 
L 165.404482 70.053025 
L 165.686939 67.38724 
L 166.157701 71.195504 
L 166.346006 68.910545 
L 166.722615 65.863934 
L 166.91092 64.340628 
L 167.005073 65.102281 
L 167.28753 64.721455 
L 167.475834 65.863934 
L 167.569987 65.102281 
L 167.664139 67.006413 
L 167.946596 68.148893 
L 168.323206 66.625587 
L 168.605663 66.625587 
L 168.699815 65.863934 
L 168.793968 66.24476 
L 168.88812 67.38724 
L 168.982273 70.053025 
L 169.26473 70.053025 
L 169.453035 70.814678 
L 169.641339 70.433851 
L 170.112101 67.006413 
L 170.206254 67.006413 
L 170.300406 67.38724 
L 170.582863 67.768066 
L 170.771168 67.006413 
L 170.959473 63.578975 
L 171.24193 63.198149 
L 171.336082 62.817322 
L 171.524387 61.294017 
L 171.618539 60.91319 
L 171.900997 62.817322 
L 172.089301 60.91319 
L 172.183454 60.91319 
L 172.277606 60.151537 
L 172.560063 60.532364 
L 172.654216 60.151537 
L 172.84252 58.247405 
L 172.936673 59.389884 
L 173.21913 59.389884 
L 173.878197 56.724099 
L 174.254806 53.296661 
L 174.537263 53.296661 
L 174.631416 53.677488 
L 174.725568 57.866579 
L 174.913873 57.104926 
L 175.19633 56.343273 
L 175.384635 57.104926 
L 175.57294 55.962446 
L 175.949549 56.724099 
L 176.043702 56.724099 
L 176.232006 56.343273 
L 176.514463 56.724099 
L 176.608616 56.343273 
L 176.796921 56.724099 
L 176.891073 56.724099 
L 177.17353 57.104926 
L 177.267683 56.724099 
L 177.361835 57.104926 
L 177.455987 55.962446 
L 177.55014 58.247405 
L 177.832597 57.866579 
L 178.020902 56.724099 
L 178.115054 57.104926 
L 178.209206 57.104926 
L 178.585816 56.343273 
L 178.679968 56.724099 
L 178.868273 57.866579 
L 179.15073 57.866579 
L 179.244883 58.628231 
L 179.52734 56.343273 
L 179.809797 56.343273 
L 180.092254 54.819967 
L 180.186407 56.343273 
L 180.657168 57.104926 
L 181.12793 58.628231 
L 181.316235 58.628231 
L 181.410388 60.151537 
L 181.786997 59.009058 
L 181.881149 59.009058 
L 182.069454 59.770711 
L 182.446064 60.151537 
L 182.728521 57.485752 
L 182.822673 55.200793 
L 183.105131 56.343273 
L 183.387588 54.43914 
L 183.764197 55.962446 
L 183.85835 55.200793 
L 184.046654 56.724099 
L 184.140807 57.104926 
L 184.517416 57.485752 
L 184.705721 55.962446 
L 184.799873 57.104926 
L 185.270635 55.58162 
L 185.45894 53.296661 
L 185.741397 52.915835 
L 185.83555 52.154182 
L 186.682921 55.58162 
L 186.777074 55.200793 
L 187.059531 55.200793 
L 187.247835 56.343273 
L 187.43614 59.009058 
L 187.718597 59.389884 
L 187.81275 60.151537 
L 188.001055 66.625587 
L 188.095207 67.768066 
L 188.377664 67.768066 
L 188.471817 68.148893 
L 189.130883 79.19286 
L 189.225036 78.812033 
L 189.41334 76.146248 
L 189.695798 76.146248 
L 189.884102 79.954512 
L 190.072407 89.094347 
L 190.354864 91.379306 
L 190.543169 89.475174 
L 190.731474 85.666909 
L 191.108083 83.762777 
L 191.672998 88.332694 
L 191.76715 87.571041 
L 191.861302 88.332694 
L 192.049607 86.428562 
L 192.426217 84.143603 
L 192.614521 80.716165 
L 192.708674 81.096992 
L 192.991131 79.573686 
L 193.085283 79.954512 
L 193.367741 83.38195 
L 193.650198 84.52443 
L 193.838503 86.809388 
L 194.309264 85.286083 
L 194.497569 86.428562 
L 194.591722 87.190215 
L 194.685874 86.428562 
L 194.968331 87.190215 
L 195.627398 94.806744 
L 195.72155 94.806744 
L 195.909855 98.234182 
L 196.004007 95.568397 
L 196.286465 96.710876 
L 196.474769 100.51914 
L 196.568922 101.280793 
L 196.945531 99.757488 
L 197.039684 101.280793 
L 197.133836 99.757488 
L 197.227988 101.280793 
L 197.322141 99.757488 
L 197.69875 98.615008 
L 197.887055 96.710876 
L 197.981207 96.710876 
L 198.357817 93.283438 
L 198.546122 86.047736 
L 198.640274 86.428562 
L 198.922731 86.428562 
L 199.111036 89.475174 
L 199.299341 91.760132 
L 199.581798 92.140959 
L 199.864255 89.856 
L 199.958408 87.951868 
L 200.240865 88.332694 
L 200.335017 90.617653 
L 200.42917 89.856 
L 200.617474 86.809388 
L 200.899931 86.809388 
L 200.994084 86.047736 
L 201.276541 82.239471 
L 201.558998 82.239471 
L 201.653151 80.716165 
L 201.841455 81.096992 
L 201.935608 80.716165 
L 202.218065 80.716165 
L 202.312217 82.239471 
L 202.40637 81.477818 
L 202.594674 84.143603 
L 202.877132 83.38195 
L 203.065436 85.286083 
L 203.159589 86.047736 
L 203.253741 88.332694 
L 203.630351 91.379306 
L 203.818655 89.094347 
L 203.912808 87.571041 
L 204.195265 85.286083 
L 204.289417 85.666909 
L 204.477722 88.332694 
L 204.571875 87.571041 
L 204.948484 87.190215 
L 205.042636 88.332694 
L 205.136789 87.571041 
L 205.701703 91.379306 
L 205.795856 90.617653 
L 205.890008 88.713521 
L 206.172465 90.998479 
L 206.266617 90.236826 
L 206.36077 91.760132 
L 206.831532 89.475174 
L 207.019837 87.190215 
L 207.208141 88.332694 
L 207.490598 87.951868 
L 207.773056 86.809388 
L 207.867208 87.190215 
L 208.149665 87.571041 
L 208.243818 86.809388 
L 208.432122 87.190215 
L 208.526275 86.809388 
L 208.808732 86.809388 
L 208.997037 85.666909 
L 209.091189 87.951868 
L 209.185341 87.190215 
L 209.467799 87.571041 
L 209.561951 86.809388 
L 209.750256 87.951868 
L 209.844408 88.332694 
L 210.126865 87.951868 
L 210.409322 94.045091 
L 210.503475 97.472529 
L 210.785932 98.995835 
L 210.880084 97.853355 
L 211.162542 104.327405 
L 211.444999 106.231537 
L 211.633303 101.280793 
L 211.821608 100.138314 
L 212.104065 103.946579 
L 212.198218 103.184926 
L 212.386523 105.089058 
L 212.480675 103.184926 
L 212.763132 102.042446 
L 212.857284 102.804099 
L 212.951437 105.850711 
L 213.045589 105.469884 
L 213.139742 102.423273 
L 213.516351 99.757488 
L 213.704656 101.280793 
L 213.798808 100.138314 
L 214.081265 103.946579 
L 214.363723 97.472529 
L 215.116942 105.850711 
L 215.587704 104.327405 
L 215.681856 104.708231 
L 216.058466 103.565752 
L 216.24677 100.138314 
L 216.435075 96.710876 
L 216.999989 94.045091 
L 217.094142 92.521785 
L 217.376599 92.902612 
L 217.470751 95.568397 
L 217.564904 95.18757 
L 217.659056 94.045091 
L 217.753209 94.806744 
L 218.035666 95.949223 
L 218.22397 97.472529 
L 218.318123 96.33005 
L 218.694732 95.949223 
L 219.071342 97.472529 
L 219.353799 97.091702 
L 219.447951 96.33005 
L 219.636256 97.091702 
L 219.730409 96.710876 
L 220.107018 96.710876 
L 220.201171 94.425917 
L 220.295323 95.18757 
L 220.389475 94.806744 
L 220.671933 94.425917 
L 220.860237 93.283438 
L 220.95439 93.283438 
L 221.519304 90.998479 
L 221.707609 88.713521 
L 222.084218 89.094347 
L 222.366675 87.951868 
L 222.649133 88.332694 
L 222.837437 89.475174 
L 223.025742 85.286083 
L 223.684809 88.332694 
L 224.061418 90.617653 
L 224.249723 87.951868 
L 224.626333 87.951868 
L 224.814637 86.428562 
L 225.002942 86.809388 
L 225.285399 86.428562 
L 225.379552 86.809388 
L 225.473704 86.428562 
L 225.567857 85.286083 
L 225.662009 85.666909 
L 225.944466 86.047736 
L 226.038619 86.428562 
L 226.132771 86.047736 
L 226.321076 86.809388 
L 226.603533 85.286083 
L 226.697685 86.809388 
L 226.791838 86.428562 
L 226.88599 88.332694 
L 226.980142 87.571041 
L 227.356752 86.047736 
L 227.450904 84.52443 
L 227.639209 86.428562 
L 228.015819 86.428562 
L 228.109971 87.190215 
L 228.298276 91.379306 
L 228.580733 90.236826 
L 228.769038 93.283438 
L 228.957342 96.710876 
L 229.2398 96.33005 
L 229.428104 95.18757 
L 229.616409 93.283438 
L 229.993019 92.140959 
L 230.087171 93.283438 
L 230.275476 92.902612 
L 230.557933 93.664264 
L 230.746238 90.998479 
L 230.84039 92.140959 
L 230.934543 91.760132 
L 231.217 91.760132 
L 231.311152 93.283438 
L 231.593609 90.236826 
L 231.876066 92.140959 
L 232.064371 94.806744 
L 232.158524 94.425917 
L 232.252676 95.568397 
L 232.535133 96.710876 
L 232.629286 96.33005 
L 232.81759 97.091702 
L 232.911743 95.949223 
L 233.1942 96.710876 
L 233.288352 97.853355 
L 233.382505 95.949223 
L 233.570809 99.757488 
L 233.853267 102.042446 
L 234.135724 101.280793 
L 234.229876 101.280793 
L 234.606486 99.757488 
L 234.700638 101.280793 
L 234.79479 100.138314 
L 234.888943 102.042446 
L 235.1714 100.899967 
L 235.265552 102.042446 
L 235.453857 106.612364 
L 235.548009 103.565752 
L 235.924619 103.565752 
L 236.112924 102.042446 
L 236.207076 101.66162 
L 236.489533 101.66162 
L 236.677838 98.615008 
L 236.771991 98.234182 
L 237.1486 100.138314 
L 237.336905 102.042446 
L 237.431057 103.946579 
L 237.52521 102.423273 
L 238.184276 107.754843 
L 238.466733 108.897322 
L 238.655038 108.135669 
L 238.749191 108.897322 
L 238.843343 106.612364 
L 239.1258 106.612364 
L 239.314105 107.374017 
L 239.408257 106.99319 
L 239.50241 110.039802 
L 239.879019 113.848066 
L 240.161476 115.371372 
L 240.538086 120.322116 
L 240.820543 130.60443 
L 241.103 134.031868 
L 241.197153 139.363438 
L 241.291305 137.459306 
L 241.47961 129.081124 
L 241.762067 129.842777 
L 241.856219 130.60443 
L 242.138677 129.081124 
L 242.421134 129.842777 
L 242.515286 130.985256 
L 242.609438 130.223603 
L 243.174353 136.697653 
L 243.268505 135.555174 
L 243.362658 131.366083 
L 243.45681 134.031868 
L 244.021724 137.459306 
L 244.115877 135.936 
L 244.398334 136.697653 
L 244.492486 136.316826 
L 244.586639 136.697653 
L 244.774943 133.651041 
L 245.0574 133.651041 
L 245.151553 134.031868 
L 245.339858 135.936 
L 245.43401 138.982612 
L 245.716467 139.363438 
L 245.81062 135.555174 
L 245.904772 137.078479 
L 246.093077 136.316826 
L 246.375534 138.601785 
L 246.563839 143.933355 
L 246.752143 140.505917 
L 247.128753 140.125091 
L 247.41121 144.314182 
L 247.693667 145.837488 
L 247.976124 143.552529 
L 248.070277 142.790876 
L 248.446886 143.171702 
L 248.729344 146.979967 
L 249.105953 152.311537 
L 249.200105 150.407405 
L 249.294258 151.930711 
L 249.38841 155.358149 
L 249.670867 155.738975 
L 249.76502 156.881455 
L 249.859172 155.738975 
L 249.953325 159.54724 
L 250.424086 154.215669 
L 250.706544 156.881455 
L 250.989001 156.500628 
L 251.083153 155.738975 
L 251.271458 152.311537 
L 251.74222 150.026579 
L 251.836372 148.122446 
L 252.024677 150.788231 
L 252.307134 152.311537 
L 252.495439 150.788231 
L 252.589591 148.884099 
L 252.683744 149.645752 
L 252.966201 149.645752 
L 253.34281 144.695008 
L 253.71942 141.648397 
L 254.001877 145.456661 
L 254.284334 145.456661 
L 254.472639 144.314182 
L 254.660944 145.075835 
L 254.943401 145.837488 
L 255.131706 146.979967 
L 255.320011 145.456661 
L 255.602468 145.456661 
L 255.69662 146.59914 
L 255.790772 145.456661 
L 255.979077 146.218314 
L 256.355687 148.122446 
L 256.449839 147.74162 
L 256.638144 148.503273 
L 256.920601 148.503273 
L 257.014753 148.122446 
L 257.108906 148.503273 
L 257.579668 153.454017 
L 257.67382 152.311537 
L 257.767973 152.692364 
L 257.956277 153.834843 
L 258.332887 155.358149 
L 258.521192 153.454017 
L 258.615344 154.596496 
L 258.991954 151.549884 
L 259.556868 155.738975 
L 259.839325 152.692364 
L 259.933477 153.07319 
L 260.215935 153.454017 
L 260.310087 154.977322 
L 260.404239 158.785587 
L 260.592544 152.692364 
L 260.875001 150.407405 
L 261.063306 151.549884 
L 261.157458 150.407405 
L 261.251611 151.169058 
L 261.534068 150.788231 
L 261.62822 151.169058 
L 261.910678 159.54724 
L 262.287287 162.213025 
L 262.381439 160.689719 
L 262.569744 162.213025 
L 262.946354 163.736331 
L 263.040506 164.117157 
L 263.228811 166.402116 
L 263.511268 167.925421 
L 263.793725 174.018645 
L 263.887878 174.780298 
L 264.170335 175.161124 
L 264.264487 174.780298 
L 264.452792 180.111868 
L 264.546944 184.681785 
L 264.829402 192.67914 
L 264.923554 191.155835 
L 265.017706 187.728397 
L 265.206011 175.161124 
L 265.488468 174.780298 
L 265.582621 177.446083 
L 265.676773 177.065256 
L 265.770925 177.065256 
L 265.865078 180.492694 
L 266.241687 182.777653 
L 266.33584 182.396826 
L 266.429992 183.158479 
L 266.524144 182.777653 
L 266.806602 182.777653 
L 267.183211 179.350215 
L 267.465668 179.731041 
L 267.653973 185.824264 
L 267.748125 185.443438 
L 267.842278 184.681785 
L 268.218887 189.632529 
L 268.407192 186.585917 
L 268.501345 185.824264 
L 269.160411 177.826909 
L 269.442868 177.446083 
L 269.631173 181.254347 
L 269.725326 177.446083 
L 269.819478 178.207736 
L 270.101935 178.588562 
L 270.29024 180.492694 
L 270.478545 175.54195 
L 270.761002 175.54195 
L 270.855154 176.303603 
L 270.949307 175.54195 
L 271.137611 175.922777 
L 271.420069 175.161124 
L 271.608373 170.591207 
L 272.079135 175.161124 
L 272.26744 173.637818 
L 272.361592 174.399471 
L 272.455745 176.68443 
L 272.738202 176.303603 
L 272.832354 175.54195 
L 273.020659 169.067901 
L 273.114811 167.925421 
L 273.397269 168.306248 
L 273.491421 167.925421 
L 273.585573 166.402116 
L 273.773878 169.448727 
L 274.056335 169.067901 
L 274.150488 168.306248 
L 274.24464 168.687074 
L 274.432945 170.21038 
L 274.715402 172.495339 
L 274.903707 177.065256 
L 274.997859 177.446083 
L 275.092012 182.396826 
L 275.374469 184.300959 
L 275.656926 179.350215 
L 275.751078 180.492694 
L 276.033535 180.492694 
L 276.22184 180.111868 
L 276.315993 180.492694 
L 276.692602 179.731041 
L 276.786755 178.969388 
L 276.880907 180.492694 
L 276.975059 180.111868 
L 277.351669 183.539306 
L 277.445821 182.016 
L 277.728278 190.013355 
L 278.293193 196.487405 
L 278.387345 201.057322 
L 278.669802 200.676496 
L 278.763955 199.914843 
L 278.858107 203.723107 
L 278.952259 202.580628 
L 279.046412 196.868231 
L 279.328869 199.15319 
L 279.423021 198.010711 
L 279.517174 199.15319 
L 279.705479 191.917488 
L 279.987936 192.298314 
L 280.17624 196.868231 
L 280.270393 196.487405 
L 280.92946 211.339636 
L 281.023612 208.673851 
L 281.306069 206.008066 
L 281.400221 207.531372 
L 281.588526 204.48476 
L 281.682679 205.62724 
L 281.965136 202.199802 
L 282.247593 204.48476 
L 282.341745 202.961455 
L 282.624202 200.676496 
L 283.000812 190.013355 
L 283.283269 189.632529 
L 283.377422 194.964099 
L 283.659879 188.870876 
L 283.942336 190.013355 
L 284.036488 193.440793 
L 284.130641 192.67914 
L 284.318945 185.824264 
L 284.601403 185.824264 
L 284.695555 184.681785 
L 284.88386 187.728397 
L 285.260469 185.443438 
L 285.354622 186.585917 
L 285.637079 182.396826 
L 285.919536 183.539306 
L 286.013688 186.585917 
L 286.107841 186.205091 
L 286.296146 189.251702 
L 286.578603 186.966744 
L 286.86106 182.777653 
L 286.955212 185.443438 
L 287.237669 185.443438 
L 287.425974 180.492694 
L 287.520127 182.016 
L 287.614279 180.873521 
L 287.896736 181.635174 
L 288.179193 178.969388 
L 288.273346 178.969388 
L 288.555803 179.731041 
L 288.744108 185.443438 
L 288.932412 184.681785 
L 289.214869 188.109223 
L 289.403174 185.062612 
L 289.497327 183.539306 
L 289.591479 185.062612 
L 289.873936 185.062612 
L 289.968089 183.920132 
L 290.156393 186.966744 
L 290.250546 185.824264 
L 290.533003 187.34757 
L 290.81546 185.824264 
L 290.909612 185.062612 
L 291.19207 185.062612 
L 291.286222 185.443438 
L 291.474527 187.728397 
L 291.568679 187.34757 
L 291.851136 184.681785 
L 291.945289 182.396826 
L 292.133593 184.300959 
L 292.227746 186.585917 
L 292.604355 190.394182 
L 292.698508 190.394182 
L 292.79266 191.917488 
L 292.886813 190.775008 
L 293.16927 190.013355 
L 293.451727 185.443438 
L 293.545879 192.298314 
L 293.828336 194.202446 
L 294.110794 184.300959 
L 294.204946 183.920132 
L 294.487403 184.681785 
L 294.675708 189.251702 
L 294.864013 188.870876 
L 295.14647 185.443438 
L 295.428927 180.492694 
L 295.523079 179.731041 
L 295.805537 178.969388 
L 295.899689 179.350215 
L 295.993841 178.588562 
L 296.087994 179.731041 
L 296.182146 178.588562 
L 296.464603 180.873521 
L 296.652908 183.158479 
L 296.841213 184.300959 
L 297.12367 185.062612 
L 297.217822 186.585917 
L 297.406127 184.300959 
L 297.500279 180.873521 
L 297.782737 181.254347 
L 298.065194 177.826909 
L 298.159346 180.111868 
L 298.441803 178.969388 
L 298.535956 179.350215 
L 298.72426 181.254347 
L 298.818413 181.254347 
L 299.10087 182.016 
L 299.195022 183.158479 
L 299.289175 182.777653 
L 299.47748 180.873521 
L 299.948241 181.635174 
L 300.042394 182.016 
L 300.136546 179.350215 
L 300.419003 178.969388 
L 300.607308 176.68443 
L 300.795613 181.635174 
L 301.07807 182.396826 
L 301.266375 185.443438 
L 301.45468 184.681785 
L 301.737137 185.062612 
L 301.925442 183.920132 
L 302.019594 182.396826 
L 302.113746 183.920132 
L 302.396204 185.443438 
L 302.584508 182.777653 
L 302.678661 183.920132 
L 303.05527 181.254347 
L 303.149423 181.254347 
L 303.337727 178.969388 
L 303.43188 180.111868 
L 303.808489 180.492694 
L 303.902642 180.111868 
L 303.996794 180.873521 
L 304.090946 180.111868 
L 304.373404 180.492694 
L 304.655861 176.68443 
L 305.126623 173.637818 
L 305.40908 177.826909 
L 305.691537 176.68443 
L 305.879842 181.254347 
L 306.068147 181.254347 
L 306.444756 176.303603 
L 306.727213 194.583273 
L 307.00967 194.583273 
L 307.197975 190.013355 
L 307.292128 188.870876 
L 307.38628 189.251702 
L 307.668737 187.728397 
L 307.76289 188.109223 
L 308.045347 191.155835 
L 308.327804 190.775008 
L 308.421956 191.917488 
L 308.516109 189.632529 
L 308.704413 190.775008 
L 308.986871 188.49005 
L 309.175175 184.300959 
L 309.269328 185.062612 
L 309.36348 183.920132 
L 309.645937 183.158479 
L 309.928394 180.873521 
L 310.022547 182.777653 
L 310.305004 180.873521 
L 310.493309 179.350215 
L 310.587461 179.350215 
L 310.681613 178.207736 
L 311.058223 178.588562 
L 311.34068 180.111868 
L 311.623137 179.731041 
L 311.71729 178.969388 
L 311.811442 179.731041 
L 311.999747 174.780298 
L 312.470509 181.254347 
L 312.658814 178.969388 
L 312.941271 179.731041 
L 313.035423 179.350215 
L 313.223728 180.492694 
L 313.31788 179.350215 
L 313.600337 179.350215 
L 313.976947 174.399471 
L 314.259404 174.399471 
L 314.353557 175.922777 
L 314.636014 170.591207 
L 315.012623 171.35286 
L 315.106776 174.399471 
L 315.29508 170.591207 
L 315.577538 168.306248 
L 315.765842 165.259636 
L 315.954147 169.829554 
L 316.236604 169.067901 
L 316.519061 164.117157 
L 316.613214 166.021289 
L 316.895671 166.402116 
L 316.989823 167.925421 
L 317.083976 165.640463 
L 317.178128 166.782942 
L 317.272281 164.87881 
L 317.554738 165.259636 
L 317.64889 164.117157 
L 317.837195 171.35286 
L 317.931347 169.448727 
L 318.213804 167.925421 
L 318.307957 169.829554 
L 318.590414 165.259636 
L 318.872871 164.117157 
L 319.061176 165.640463 
L 319.155328 164.87881 
L 319.249481 162.213025 
L 319.62609 165.640463 
L 319.814395 162.213025 
L 320.191004 163.355504 
L 320.285157 161.070545 
L 320.379309 162.213025 
L 320.567614 159.166413 
L 320.944224 163.736331 
L 321.132528 162.593851 
L 321.509138 161.070545 
L 321.697443 163.355504 
L 321.791595 161.832198 
L 321.885747 162.593851 
L 322.168205 161.451372 
L 322.262357 161.832198 
L 322.356509 164.497983 
L 322.544814 162.213025 
L 322.827271 161.832198 
L 323.015576 159.54724 
L 323.109728 162.593851 
L 323.203881 161.832198 
L 323.58049 165.259636 
L 323.862948 161.832198 
L 324.145405 160.308893 
L 324.239557 160.689719 
L 324.427862 175.161124 
L 324.522014 170.591207 
L 324.804471 170.972033 
L 325.086929 166.782942 
L 325.181081 165.640463 
L 325.463538 166.021289 
L 325.55769 167.544595 
L 325.651843 166.782942 
L 325.745995 164.87881 
L 325.840148 166.021289 
L 326.122605 164.117157 
L 326.31091 164.497983 
L 326.405062 166.782942 
L 326.499214 166.021289 
L 326.781672 166.021289 
L 326.969976 164.87881 
L 327.158281 166.021289 
L 327.440738 165.259636 
L 327.629043 170.21038 
L 327.817348 167.925421 
L 328.099805 166.402116 
L 328.193957 167.925421 
L 328.28811 167.163769 
L 328.476414 169.067901 
L 328.758872 168.687074 
L 328.853024 168.306248 
L 329.041329 171.35286 
L 329.135481 170.21038 
L 329.417938 170.972033 
L 329.512091 171.733686 
L 329.794548 166.782942 
L 330.171157 166.402116 
L 330.359462 166.402116 
L 330.453615 167.544595 
L 330.830224 168.687074 
L 331.018529 167.544595 
L 331.112681 168.306248 
L 331.489291 168.306248 
L 331.583443 167.163769 
L 331.771748 167.544595 
L 332.054205 167.544595 
L 332.336662 173.637818 
L 332.430815 173.256992 
L 332.901577 168.687074 
L 332.995729 170.591207 
L 333.089881 169.448727 
L 333.372339 169.829554 
L 333.560643 169.067901 
L 333.748948 168.306248 
L 334.125558 169.448727 
L 334.21971 167.925421 
L 334.313862 168.306248 
L 334.408015 167.163769 
L 334.784624 167.544595 
L 334.972929 165.640463 
L 335.067081 168.306248 
L 335.349539 166.782942 
L 335.443691 167.163769 
L 335.726148 165.259636 
L 336.008605 165.640463 
L 336.102758 166.402116 
L 336.19691 164.87881 
L 336.291062 166.021289 
L 336.385215 164.87881 
L 336.950129 168.687074 
L 337.044282 167.544595 
L 337.326739 167.163769 
L 337.420891 167.544595 
L 337.515044 166.402116 
L 337.703348 167.925421 
L 338.079958 172.114512 
L 338.362415 171.35286 
L 338.644872 171.733686 
L 338.739025 170.972033 
L 339.021482 171.733686 
L 339.303939 172.495339 
L 339.586396 175.54195 
L 339.680548 174.018645 
L 339.963006 175.54195 
L 340.245463 174.018645 
L 340.339615 175.54195 
L 340.622072 174.018645 
L 340.998682 178.588562 
L 341.281139 178.588562 
L 341.469444 181.254347 
L 341.657748 177.826909 
L 341.940206 177.826909 
L 342.222663 175.54195 
L 342.316815 175.54195 
L 342.599272 175.161124 
L 342.693425 174.018645 
L 342.88173 174.780298 
L 342.975882 174.399471 
L 343.352491 172.495339 
L 343.446644 172.876165 
L 343.540796 174.018645 
L 343.634949 176.68443 
L 343.917406 177.065256 
L 344.199863 178.969388 
L 344.294015 177.826909 
L 344.670625 176.68443 
L 344.764777 176.68443 
L 344.953082 178.969388 
L 345.329692 179.350215 
L 345.423844 178.969388 
L 345.517996 180.492694 
L 345.612149 179.350215 
L 345.988758 176.303603 
L 346.177063 174.399471 
L 346.271215 173.637818 
L 346.553673 174.018645 
L 346.741977 177.065256 
L 346.930282 175.54195 
L 347.306892 175.54195 
L 347.495196 173.256992 
L 347.589349 172.876165 
L 347.871806 173.637818 
L 347.965958 174.780298 
L 348.154263 172.495339 
L 348.248416 172.495339 
L 348.530873 172.876165 
L 348.625025 174.018645 
L 348.81333 170.972033 
L 348.907482 173.256992 
L 349.189939 175.161124 
L 349.284092 173.637818 
L 349.378244 174.018645 
L 349.566549 178.969388 
L 349.849006 178.588562 
L 349.943158 179.350215 
L 350.131463 177.446083 
L 350.225616 176.68443 
L 350.508073 177.065256 
L 350.696378 178.207736 
L 350.79053 178.207736 
L 350.884682 177.446083 
L 351.167139 177.065256 
L 351.449597 179.731041 
L 351.543749 179.731041 
L 351.920359 178.207736 
L 352.014511 178.969388 
L 352.108663 181.254347 
L 352.202816 180.492694 
L 352.485273 179.731041 
L 352.76773 180.492694 
L 352.861882 179.731041 
L 353.14434 180.873521 
L 353.238492 180.492694 
L 353.332644 178.969388 
L 353.520949 180.111868 
L 354.085863 176.68443 
L 354.462473 177.065256 
L 354.74493 175.54195 
L 355.12154 181.254347 
L 355.403997 179.731041 
L 355.498149 179.350215 
L 355.780606 179.350215 
L 355.874759 179.731041 
L 355.968911 178.969388 
L 356.157216 181.635174 
L 356.439673 183.539306 
L 356.533825 183.158479 
L 356.72213 184.300959 
L 356.816283 183.158479 
L 357.09874 183.539306 
L 357.192892 183.920132 
L 357.475349 188.870876 
L 357.757806 190.394182 
L 357.946111 196.106579 
L 358.040264 194.583273 
L 358.416873 198.772364 
L 358.511026 198.391537 
L 358.69933 199.914843 
L 358.793483 201.818975 
L 359.07594 200.676496 
L 359.264245 199.15319 
L 359.358397 199.534017 
L 359.452549 199.15319 
L 359.735007 199.534017 
L 359.923311 201.818975 
L 360.017464 202.199802 
L 360.111616 201.818975 
L 360.394073 201.818975 
L 360.488226 204.103934 
L 360.582378 203.342281 
L 360.770683 206.008066 
L 361.05314 208.673851 
L 361.147292 207.912198 
L 361.241445 209.435504 
L 361.42975 212.862942 
L 361.806359 211.339636 
L 361.900511 211.339636 
L 361.994664 211.720463 
L 362.088816 210.95881 
L 362.371273 210.95881 
L 362.465426 211.339636 
L 362.747883 215.147901 
L 363.03034 214.767074 
L 363.218645 212.482116 
L 363.40695 210.577983 
L 363.689407 213.243769 
L 363.783559 210.197157 
L 363.877712 211.339636 
L 364.066016 209.435504 
L 364.348474 209.816331 
L 364.536778 209.435504 
L 364.630931 210.95881 
L 364.725083 210.197157 
L 365.00754 209.435504 
L 365.101693 208.673851 
L 365.289997 206.388893 
L 365.38415 205.62724 
L 365.666607 205.62724 
L 365.854912 206.388893 
L 365.949064 206.388893 
L 366.043216 204.865587 
L 366.419826 205.62724 
L 366.702283 214.767074 
L 366.98474 218.575339 
L 367.078893 216.29038 
L 367.173045 218.194512 
L 367.267197 217.43286 
L 367.737959 219.336992 
L 367.832112 218.956165 
L 367.926264 222.383603 
L 368.020417 222.002777 
L 368.302874 221.241124 
L 368.491178 226.572694 
L 368.585331 233.42757 
L 368.679483 231.142612 
L 369.056093 236.093355 
L 369.150245 237.616661 
L 369.33855 233.42757 
L 369.71516 238.75914 
L 369.809312 237.997488 
L 369.903464 239.139967 
L 369.997617 237.997488 
L 370.374226 237.616661 
L 370.656683 233.046744 
L 370.939141 234.189223 
L 371.033293 235.331702 
L 371.221598 232.665917 
L 371.31575 234.189223 
L 371.598207 232.285091 
L 371.786512 229.238479 
L 371.880664 230.380959 
L 371.974817 228.476826 
L 372.351426 229.238479 
L 372.445579 230.761785 
L 372.633883 229.238479 
L 372.916341 228.476826 
L 373.104645 224.668562 
L 373.198798 227.334347 
L 373.29295 226.953521 
L 373.575407 226.191868 
L 373.66956 225.430215 
L 373.763712 227.715174 
L 373.952017 225.811041 
L 374.234474 228.096 
L 374.328626 227.715174 
L 374.422779 228.096 
L 374.611084 224.668562 
L 374.893541 225.430215 
L 375.081846 224.287736 
L 375.27015 228.096 
L 375.552607 229.619306 
L 375.64676 231.142612 
L 375.929217 228.857653 
L 376.305827 230.000132 
L 376.494131 230.000132 
L 376.870741 234.950876 
L 377.24735 230.000132 
L 377.529808 228.857653 
L 377.718112 230.380959 
L 377.812265 231.523438 
L 377.906417 231.142612 
L 378.188874 234.950876 
L 378.283027 234.189223 
L 378.377179 232.285091 
L 378.471331 232.665917 
L 378.565484 233.808397 
L 379.036246 232.665917 
L 379.130398 231.142612 
L 379.22455 231.523438 
L 379.507008 231.904264 
L 379.695312 231.904264 
L 379.883617 230.000132 
L 380.166074 229.619306 
L 380.354379 227.715174 
L 380.448532 228.096 
L 380.542684 225.430215 
L 380.919293 224.287736 
L 381.013446 226.572694 
L 381.201751 225.430215 
L 381.57836 224.668562 
L 381.766665 224.668562 
L 381.860817 224.287736 
L 382.143274 224.668562 
L 382.237427 225.811041 
L 382.425732 223.906909 
L 382.802341 223.906909 
L 382.896494 223.526083 
L 382.990646 223.906909 
L 383.178951 221.241124 
L 383.461408 220.860298 
L 383.743865 222.76443 
L 383.838017 225.049388 
L 384.120475 226.572694 
L 384.214627 225.811041 
L 384.308779 226.191868 
L 384.402932 225.430215 
L 384.779541 226.572694 
L 384.873694 226.572694 
L 385.061998 227.715174 
L 385.156151 226.191868 
L 385.53276 226.191868 
L 385.626913 225.811041 
L 385.815218 227.715174 
L 386.097675 227.334347 
L 386.191827 226.572694 
L 386.474284 233.808397 
L 386.756741 231.904264 
L 386.850894 232.285091 
L 387.039199 231.142612 
L 387.133351 230.000132 
L 387.50996 228.476826 
L 387.698265 227.715174 
L 387.792418 231.142612 
L 388.074875 230.761785 
L 388.169027 232.285091 
L 388.357332 236.093355 
L 388.451484 235.712529 
L 388.828094 232.665917 
L 388.922246 233.046744 
L 389.110551 232.665917 
L 389.393008 234.57005 
L 389.487161 234.189223 
L 389.675465 233.046744 
L 390.052075 231.904264 
L 390.24038 233.046744 
L 390.334532 232.285091 
L 390.711142 233.42757 
L 390.805294 232.285091 
L 390.993599 237.235835 
L 391.087751 237.616661 
L 391.558513 236.093355 
L 391.652665 236.855008 
L 391.746818 236.093355 
L 392.029275 236.855008 
L 392.311732 241.044099 
L 392.405885 240.282446 
L 392.688342 241.805752 
L 392.876646 241.044099 
L 393.064951 243.709884 
L 393.347408 244.090711 
L 393.441561 242.567405 
L 393.629866 243.329058 
L 393.724018 242.567405 
L 394.100627 242.567405 
L 394.288932 241.424926 
L 394.383085 241.424926 
L 394.665542 241.044099 
L 394.853847 239.520793 
L 394.947999 239.520793 
L 395.042151 239.139967 
L 395.324608 240.663273 
L 395.607066 237.235835 
L 395.701218 237.235835 
L 395.983675 237.616661 
L 396.360285 233.046744 
L 396.642742 233.046744 
L 396.831047 233.808397 
L 397.019351 232.665917 
L 397.490113 231.142612 
L 397.678418 230.000132 
L 398.055028 231.904264 
L 398.337485 229.619306 
L 398.714094 231.523438 
L 398.808247 231.142612 
L 398.996552 230.761785 
L 399.467313 230.761785 
L 399.561466 231.523438 
L 399.655618 231.142612 
L 400.12638 232.285091 
L 400.597142 237.616661 
L 400.785447 237.616661 
L 400.973752 237.997488 
L 401.444514 253.611372 
L 401.632818 251.70724 
L 401.915276 252.468893 
L 402.10358 251.326413 
L 402.291885 253.230545 
L 402.574342 253.611372 
L 402.762647 255.896331 
L 402.950952 258.181289 
L 403.233409 258.562116 
L 403.515866 257.419636 
L 403.610018 256.277157 
L 403.892476 259.323769 
L 404.08078 258.562116 
L 404.269085 261.227901 
L 404.645695 260.847074 
L 404.739847 260.847074 
L 404.833999 261.227901 
L 404.928152 260.847074 
L 405.210609 260.847074 
L 405.304761 261.227901 
L 405.398914 260.085421 
L 405.493066 260.466248 
L 405.587219 259.704595 
L 405.869676 259.704595 
L 406.05798 260.085421 
L 406.246285 258.181289 
L 406.528742 258.942942 
L 406.717047 260.847074 
L 406.8112 261.227901 
L 406.905352 260.847074 
L 407.187809 261.227901 
L 407.281962 261.989554 
L 407.376114 261.608727 
L 407.470266 262.37038 
L 407.564419 261.608727 
L 407.846876 261.227901 
L 408.223485 258.942942 
L 408.7884 258.942942 
L 408.882552 258.562116 
L 409.165009 258.562116 
L 409.259162 257.800463 
L 409.541619 261.989554 
L 409.824076 261.608727 
L 410.012381 262.751207 
L 410.106533 262.751207 
L 410.200685 263.132033 
L 410.577295 263.51286 
L 410.671447 264.274512 
L 410.7656 263.893686 
L 411.330514 265.797818 
L 411.424666 264.655339 
L 411.518819 265.036165 
L 411.895428 265.416992 
L 411.989581 265.416992 
L 412.083733 265.036165 
L 412.177886 263.51286 
L 412.554495 265.416992 
L 412.836952 264.655339 
L 413.119409 264.274512 
L 413.213562 263.893686 
L 413.401867 262.751207 
L 413.496019 261.989554 
L 413.778476 261.227901 
L 413.872629 259.704595 
L 414.060933 259.323769 
L 414.155086 259.704595 
L 414.437543 258.181289 
L 414.531695 256.277157 
L 414.72 257.419636 
L 414.72 257.419636 
" style="fill:none;stroke:#1f77b4;stroke-linecap:square;stroke-width:1.5;"/>
   </g>
   <g id="patch_3">
    <path d="M 57.6 276.48 
L 57.6 41.472 
" style="fill:none;stroke:#000000;stroke-linecap:square;stroke-linejoin:miter;stroke-width:0.8;"/>
   </g>
   <g id="patch_4">
    <path d="M 414.72 276.48 
L 414.72 41.472 
" style="fill:none;stroke:#000000;stroke-linecap:square;stroke-linejoin:miter;stroke-width:0.8;"/>
   </g>
   <g id="patch_5">
    <path d="M 57.6 276.48 
L 414.72 276.48 
" style="fill:none;stroke:#000000;stroke-linecap:square;stroke-linejoin:miter;stroke-width:0.8;"/>
   </g>
   <g id="patch_6">
    <path d="M 57.6 41.472 
L 414.72 41.472 
" style="fill:none;stroke:#000000;stroke-linecap:square;stroke-linejoin:miter;stroke-width:0.8;"/>
   </g>
   <g id="text_20">
    <!-- TempletonEmergingMarkets Net Asset Value -->
    <defs>
     <path d="M -0.296875 72.90625 
L 61.375 72.90625 
L 61.375 64.59375 
L 35.5 64.59375 
L 35.5 0 
L 25.59375 0 
L 25.59375 64.59375 
L -0.296875 64.59375 
z
" id="DejaVuSans-84"/>
     <path d="M 52 44.1875 
Q 55.375 50.25 60.0625 53.125 
Q 64.75 56 71.09375 56 
Q 79.640625 56 84.28125 50.015625 
Q 88.921875 44.046875 88.921875 33.015625 
L 88.921875 0 
L 79.890625 0 
L 79.890625 32.71875 
Q 79.890625 40.578125 77.09375 44.375 
Q 74.3125 48.1875 68.609375 48.1875 
Q 61.625 48.1875 57.5625 43.546875 
Q 53.515625 38.921875 53.515625 30.90625 
L 53.515625 0 
L 44.484375 0 
L 44.484375 32.71875 
Q 44.484375 40.625 41.703125 44.40625 
Q 38.921875 48.1875 33.109375 48.1875 
Q 26.21875 48.1875 22.15625 43.53125 
Q 18.109375 38.875 18.109375 30.90625 
L 18.109375 0 
L 9.078125 0 
L 9.078125 54.6875 
L 18.109375 54.6875 
L 18.109375 46.1875 
Q 21.1875 51.21875 25.484375 53.609375 
Q 29.78125 56 35.6875 56 
Q 41.65625 56 45.828125 52.96875 
Q 50 49.953125 52 44.1875 
z
" id="DejaVuSans-109"/>
     <path d="M 18.109375 8.203125 
L 18.109375 -20.796875 
L 9.078125 -20.796875 
L 9.078125 54.6875 
L 18.109375 54.6875 
L 18.109375 46.390625 
Q 20.953125 51.265625 25.265625 53.625 
Q 29.59375 56 35.59375 56 
Q 45.5625 56 51.78125 48.09375 
Q 58.015625 40.1875 58.015625 27.296875 
Q 58.015625 14.40625 51.78125 6.484375 
Q 45.5625 -1.421875 35.59375 -1.421875 
Q 29.59375 -1.421875 25.265625 0.953125 
Q 20.953125 3.328125 18.109375 8.203125 
z
M 48.6875 27.296875 
Q 48.6875 37.203125 44.609375 42.84375 
Q 40.53125 48.484375 33.40625 48.484375 
Q 26.265625 48.484375 22.1875 42.84375 
Q 18.109375 37.203125 18.109375 27.296875 
Q 18.109375 17.390625 22.1875 11.75 
Q 26.265625 6.109375 33.40625 6.109375 
Q 40.53125 6.109375 44.609375 11.75 
Q 48.6875 17.390625 48.6875 27.296875 
z
" id="DejaVuSans-112"/>
     <path d="M 30.609375 48.390625 
Q 23.390625 48.390625 19.1875 42.75 
Q 14.984375 37.109375 14.984375 27.296875 
Q 14.984375 17.484375 19.15625 11.84375 
Q 23.34375 6.203125 30.609375 6.203125 
Q 37.796875 6.203125 41.984375 11.859375 
Q 46.1875 17.53125 46.1875 27.296875 
Q 46.1875 37.015625 41.984375 42.703125 
Q 37.796875 48.390625 30.609375 48.390625 
z
M 30.609375 56 
Q 42.328125 56 49.015625 48.375 
Q 55.71875 40.765625 55.71875 27.296875 
Q 55.71875 13.875 49.015625 6.21875 
Q 42.328125 -1.421875 30.609375 -1.421875 
Q 18.84375 -1.421875 12.171875 6.21875 
Q 5.515625 13.875 5.515625 27.296875 
Q 5.515625 40.765625 12.171875 48.375 
Q 18.84375 56 30.609375 56 
z
" id="DejaVuSans-111"/>
     <path d="M 54.890625 33.015625 
L 54.890625 0 
L 45.90625 0 
L 45.90625 32.71875 
Q 45.90625 40.484375 42.875 44.328125 
Q 39.84375 48.1875 33.796875 48.1875 
Q 26.515625 48.1875 22.3125 43.546875 
Q 18.109375 38.921875 18.109375 30.90625 
L 18.109375 0 
L 9.078125 0 
L 9.078125 54.6875 
L 18.109375 54.6875 
L 18.109375 46.1875 
Q 21.34375 51.125 25.703125 53.5625 
Q 30.078125 56 35.796875 56 
Q 45.21875 56 50.046875 50.171875 
Q 54.890625 44.34375 54.890625 33.015625 
z
" id="DejaVuSans-110"/>
     <path d="M 9.8125 72.90625 
L 55.90625 72.90625 
L 55.90625 64.59375 
L 19.671875 64.59375 
L 19.671875 43.015625 
L 54.390625 43.015625 
L 54.390625 34.71875 
L 19.671875 34.71875 
L 19.671875 8.296875 
L 56.78125 8.296875 
L 56.78125 0 
L 9.8125 0 
z
" id="DejaVuSans-69"/>
     <path d="M 45.40625 27.984375 
Q 45.40625 37.75 41.375 43.109375 
Q 37.359375 48.484375 30.078125 48.484375 
Q 22.859375 48.484375 18.828125 43.109375 
Q 14.796875 37.75 14.796875 27.984375 
Q 14.796875 18.265625 18.828125 12.890625 
Q 22.859375 7.515625 30.078125 7.515625 
Q 37.359375 7.515625 41.375 12.890625 
Q 45.40625 18.265625 45.40625 27.984375 
z
M 54.390625 6.78125 
Q 54.390625 -7.171875 48.1875 -13.984375 
Q 42 -20.796875 29.203125 -20.796875 
Q 24.46875 -20.796875 20.265625 -20.09375 
Q 16.0625 -19.390625 12.109375 -17.921875 
L 12.109375 -9.1875 
Q 16.0625 -11.328125 19.921875 -12.34375 
Q 23.78125 -13.375 27.78125 -13.375 
Q 36.625 -13.375 41.015625 -8.765625 
Q 45.40625 -4.15625 45.40625 5.171875 
L 45.40625 9.625 
Q 42.625 4.78125 38.28125 2.390625 
Q 33.9375 0 27.875 0 
Q 17.828125 0 11.671875 7.65625 
Q 5.515625 15.328125 5.515625 27.984375 
Q 5.515625 40.671875 11.671875 48.328125 
Q 17.828125 56 27.875 56 
Q 33.9375 56 38.28125 53.609375 
Q 42.625 51.21875 45.40625 46.390625 
L 45.40625 54.6875 
L 54.390625 54.6875 
z
" id="DejaVuSans-103"/>
     <path d="M 9.421875 54.6875 
L 18.40625 54.6875 
L 18.40625 0 
L 9.421875 0 
z
M 9.421875 75.984375 
L 18.40625 75.984375 
L 18.40625 64.59375 
L 9.421875 64.59375 
z
" id="DejaVuSans-105"/>
     <path d="M 9.8125 72.90625 
L 24.515625 72.90625 
L 43.109375 23.296875 
L 61.8125 72.90625 
L 76.515625 72.90625 
L 76.515625 0 
L 66.890625 0 
L 66.890625 64.015625 
L 48.09375 14.015625 
L 38.1875 14.015625 
L 19.390625 64.015625 
L 19.390625 0 
L 9.8125 0 
z
" id="DejaVuSans-77"/>
     <path d="M 9.078125 75.984375 
L 18.109375 75.984375 
L 18.109375 31.109375 
L 44.921875 54.6875 
L 56.390625 54.6875 
L 27.390625 29.109375 
L 57.625 0 
L 45.90625 0 
L 18.109375 26.703125 
L 18.109375 0 
L 9.078125 0 
z
" id="DejaVuSans-107"/>
    </defs>
    <g transform="translate(101.55 35.472)scale(0.12 -0.12)">
     <use xlink:href="#DejaVuSans-84"/>
     <use x="60.818359" xlink:href="#DejaVuSans-101"/>
     <use x="122.341797" xlink:href="#DejaVuSans-109"/>
     <use x="219.753906" xlink:href="#DejaVuSans-112"/>
     <use x="283.230469" xlink:href="#DejaVuSans-108"/>
     <use x="311.013672" xlink:href="#DejaVuSans-101"/>
     <use x="372.537109" xlink:href="#DejaVuSans-116"/>
     <use x="411.746094" xlink:href="#DejaVuSans-111"/>
     <use x="472.927734" xlink:href="#DejaVuSans-110"/>
     <use x="536.306641" xlink:href="#DejaVuSans-69"/>
     <use x="599.490234" xlink:href="#DejaVuSans-109"/>
     <use x="696.902344" xlink:href="#DejaVuSans-101"/>
     <use x="758.425781" xlink:href="#DejaVuSans-114"/>
     <use x="799.523438" xlink:href="#DejaVuSans-103"/>
     <use x="863" xlink:href="#DejaVuSans-105"/>
     <use x="890.783203" xlink:href="#DejaVuSans-110"/>
     <use x="954.162109" xlink:href="#DejaVuSans-103"/>
     <use x="1017.638672" xlink:href="#DejaVuSans-77"/>
     <use x="1103.917969" xlink:href="#DejaVuSans-97"/>
     <use x="1165.197266" xlink:href="#DejaVuSans-114"/>
     <use x="1206.310547" xlink:href="#DejaVuSans-107"/>
     <use x="1264.173828" xlink:href="#DejaVuSans-101"/>
     <use x="1325.697266" xlink:href="#DejaVuSans-116"/>
     <use x="1364.90625" xlink:href="#DejaVuSans-115"/>
     <use x="1417.005859" xlink:href="#DejaVuSans-32"/>
     <use x="1448.792969" xlink:href="#DejaVuSans-78"/>
     <use x="1523.597656" xlink:href="#DejaVuSans-101"/>
     <use x="1585.121094" xlink:href="#DejaVuSans-116"/>
     <use x="1624.330078" xlink:href="#DejaVuSans-32"/>
     <use x="1656.117188" xlink:href="#DejaVuSans-65"/>
     <use x="1724.525391" xlink:href="#DejaVuSans-115"/>
     <use x="1776.625" xlink:href="#DejaVuSans-115"/>
     <use x="1828.724609" xlink:href="#DejaVuSans-101"/>
     <use x="1890.248047" xlink:href="#DejaVuSans-116"/>
     <use x="1929.457031" xlink:href="#DejaVuSans-32"/>
     <use x="1961.244141" xlink:href="#DejaVuSans-86"/>
     <use x="2029.542969" xlink:href="#DejaVuSans-97"/>
     <use x="2090.822266" xlink:href="#DejaVuSans-108"/>
     <use x="2118.605469" xlink:href="#DejaVuSans-117"/>
     <use x="2181.984375" xlink:href="#DejaVuSans-101"/>
    </g>
   </g>
   <g id="legend_1">
    <g id="patch_7">
     <path d="M 354.566875 64.150125 
L 407.72 64.150125 
Q 409.72 64.150125 409.72 62.150125 
L 409.72 48.472 
Q 409.72 46.472 407.72 46.472 
L 354.566875 46.472 
Q 352.566875 46.472 352.566875 48.472 
L 352.566875 62.150125 
Q 352.566875 64.150125 354.566875 64.150125 
z
" style="fill:#ffffff;opacity:0.8;stroke:#cccccc;stroke-linejoin:miter;"/>
    </g>
    <g id="line2d_36">
     <path d="M 356.566875 54.570437 
L 376.566875 54.570437 
" style="fill:none;stroke:#1f77b4;stroke-linecap:square;stroke-width:1.5;"/>
    </g>
    <g id="line2d_37"/>
    <g id="text_21">
     <!-- NAV -->
     <g transform="translate(384.566875 58.070437)scale(0.1 -0.1)">
      <use xlink:href="#DejaVuSans-78"/>
      <use x="74.804688" xlink:href="#DejaVuSans-65"/>
      <use x="143.119141" xlink:href="#DejaVuSans-86"/>
     </g>
    </g>
   </g>
  </g>
 </g>
 <defs>
  <clipPath id="p8c72864d17">
   <rect height="235.008" width="357.12" x="57.6" y="41.472"/>
  </clipPath>
 </defs>
</svg>
